{
"type": "FeatureCollection",
"name": "elhierro",
"crs": { "type": "name", "properties": { "name": "urn:ogc:def:crs:OGC:1.3:CRS84" } },
"features": [
{ "type": "Feature", "properties": { "geocode": "ES703", "etiqueta": "El Hierro", "notas": "Cabildo de El Hierro", "granularidad": "ISLAS", "gcd_provincia": "ES702", "superficie": 26771.3, "perimetro": 120433.0, "utm_x": 200495.81, "utm_y": 3072499.65, "longitud": -18.038165, "latitud": 27.743606, "utm_x_capi": 212755.0, "utm_y_capi": 3079276.0, "long_capi": -17.915572, "lati_capi": 27.807376 }, "geometry": { "type": "MultiPolygon", "coordinates": [ [ [ [ -17.96079, 27.69245 ], [ -17.96131, 27.69248 ], [ -17.96327, 27.69122 ], [ -17.9647, 27.68938 ], [ -17.96506, 27.68845 ], [ -17.96489, 27.6884 ], [ -17.96499, 27.68822 ], [ -17.96479, 27.68764 ], [ -17.96502, 27.6875 ], [ -17.96522, 27.68771 ], [ -17.9656, 27.68743 ], [ -17.96566, 27.6871 ], [ -17.96586, 27.68702 ], [ -17.96556, 27.68645 ], [ -17.96566, 27.68613 ], [ -17.96594, 27.6859 ], [ -17.96626, 27.68615 ], [ -17.96642, 27.68607 ], [ -17.96711, 27.68462 ], [ -17.96707, 27.68392 ], [ -17.96664, 27.68382 ], [ -17.96646, 27.6832 ], [ -17.96656, 27.68294 ], [ -17.96712, 27.68282 ], [ -17.96726, 27.6826 ], [ -17.96721, 27.68239 ], [ -17.96689, 27.68237 ], [ -17.96663, 27.68215 ], [ -17.96663, 27.68201 ], [ -17.96723, 27.68182 ], [ -17.96733, 27.6801 ], [ -17.96661, 27.67995 ], [ -17.96655, 27.67947 ], [ -17.96662, 27.67935 ], [ -17.96738, 27.67936 ], [ -17.96751, 27.67893 ], [ -17.96741, 27.67876 ], [ -17.96784, 27.67792 ], [ -17.96953, 27.67682 ], [ -17.96994, 27.67595 ], [ -17.9696, 27.67555 ], [ -17.96977, 27.67543 ], [ -17.97008, 27.67559 ], [ -17.97034, 27.67538 ], [ -17.9705, 27.67476 ], [ -17.9713, 27.67395 ], [ -17.9721, 27.67264 ], [ -17.97239, 27.67177 ], [ -17.97252, 27.67092 ], [ -17.97239, 27.67036 ], [ -17.97167, 27.66924 ], [ -17.97155, 27.66853 ], [ -17.97128, 27.66823 ], [ -17.97123, 27.66783 ], [ -17.97145, 27.66762 ], [ -17.97127, 27.66761 ], [ -17.97128, 27.66747 ], [ -17.97169, 27.66729 ], [ -17.97174, 27.66692 ], [ -17.9713, 27.66554 ], [ -17.97136, 27.66512 ], [ -17.97094, 27.66463 ], [ -17.97071, 27.66309 ], [ -17.97103, 27.66217 ], [ -17.97084, 27.66207 ], [ -17.97116, 27.66194 ], [ -17.97124, 27.66157 ], [ -17.9711, 27.66111 ], [ -17.97119, 27.66038 ], [ -17.97086, 27.65895 ], [ -17.9705, 27.65863 ], [ -17.97038, 27.65799 ], [ -17.9708, 27.65631 ], [ -17.97072, 27.65605 ], [ -17.9709, 27.65592 ], [ -17.97085, 27.65511 ], [ -17.97133, 27.65368 ], [ -17.97135, 27.65342 ], [ -17.97119, 27.65335 ], [ -17.97131, 27.65318 ], [ -17.97122, 27.65209 ], [ -17.97142, 27.65073 ], [ -17.97123, 27.65051 ], [ -17.97111, 27.64994 ], [ -17.97036, 27.64898 ], [ -17.97036, 27.64828 ], [ -17.97057, 27.64828 ], [ -17.97087, 27.64801 ], [ -17.9708, 27.6478 ], [ -17.97106, 27.64774 ], [ -17.97171, 27.64731 ], [ -17.97179, 27.64712 ], [ -17.97217, 27.64709 ], [ -17.97224, 27.64676 ], [ -17.97282, 27.64669 ], [ -17.97264, 27.64645 ], [ -17.97302, 27.64627 ], [ -17.97283, 27.6458 ], [ -17.97311, 27.64596 ], [ -17.97291, 27.6457 ], [ -17.97349, 27.64561 ], [ -17.9739, 27.64517 ], [ -17.97403, 27.64526 ], [ -17.97431, 27.64512 ], [ -17.97439, 27.64429 ], [ -17.97461, 27.64401 ], [ -17.9748, 27.64403 ], [ -17.97472, 27.64384 ], [ -17.97512, 27.64373 ], [ -17.97524, 27.64347 ], [ -17.97532, 27.64331 ], [ -17.97533, 27.64298 ], [ -17.97536, 27.6429 ], [ -17.97549, 27.64263 ], [ -17.9756, 27.64209 ], [ -17.97551, 27.64169 ], [ -17.97545, 27.64142 ], [ -17.97568, 27.64125 ], [ -17.97608, 27.64133 ], [ -17.97682, 27.64098 ], [ -17.97695, 27.64065 ], [ -17.97715, 27.64061 ], [ -17.97737, 27.64041 ], [ -17.9777, 27.64022 ], [ -17.97776, 27.63997 ], [ -17.97782, 27.63987 ], [ -17.97781, 27.63933 ], [ -17.97795, 27.6395 ], [ -17.98196, 27.6385 ], [ -17.98213, 27.63874 ], [ -17.98204, 27.63893 ], [ -17.98178, 27.63887 ], [ -17.97952, 27.63946 ], [ -17.97957, 27.63968 ], [ -17.9796, 27.63976 ], [ -17.97966, 27.63978 ], [ -17.97986, 27.64013 ], [ -17.97986, 27.64077 ], [ -17.98052, 27.64088 ], [ -17.98121, 27.64063 ], [ -17.98124, 27.6403 ], [ -17.98158, 27.64023 ], [ -17.98167, 27.64001 ], [ -17.98145, 27.63942 ], [ -17.98165, 27.63949 ], [ -17.98183, 27.64005 ], [ -17.98195, 27.64005 ], [ -17.98194, 27.63984 ], [ -17.98216, 27.64005 ], [ -17.98231, 27.63991 ], [ -17.98238, 27.63988 ], [ -17.98327, 27.63951 ], [ -17.98348, 27.63983 ], [ -17.98456, 27.63912 ], [ -17.98411, 27.63859 ], [ -17.9833, 27.63842 ], [ -17.98331, 27.63819 ], [ -17.98404, 27.63826 ], [ -17.98497, 27.63883 ], [ -17.98525, 27.63845 ], [ -17.98549, 27.63843 ], [ -17.98579, 27.63815 ], [ -17.98587, 27.63823 ], [ -17.98594, 27.63802 ], [ -17.98605, 27.63815 ], [ -17.98627, 27.63809 ], [ -17.98685, 27.63773 ], [ -17.98717, 27.63797 ], [ -17.9875, 27.6378 ], [ -17.98751, 27.63804 ], [ -17.98772, 27.63791 ], [ -17.9882, 27.63809 ], [ -17.98845, 27.63816 ], [ -17.9889, 27.63836 ], [ -17.98931, 27.63843 ], [ -17.98929, 27.63864 ], [ -17.99106, 27.63866 ], [ -17.99184, 27.639 ], [ -17.99194, 27.63919 ], [ -17.99197, 27.63931 ], [ -17.99198, 27.63955 ], [ -17.99268, 27.63967 ], [ -17.99321, 27.64 ], [ -17.99362, 27.63995 ], [ -17.99351, 27.64015 ], [ -17.99375, 27.64031 ], [ -17.99383, 27.64016 ], [ -17.99432, 27.64038 ], [ -17.9947, 27.64024 ], [ -17.99475, 27.64049 ], [ -17.99552, 27.64093 ], [ -17.99572, 27.64087 ], [ -17.9964, 27.64195 ], [ -17.99626, 27.64249 ], [ -17.99621, 27.64263 ], [ -17.99614, 27.64292 ], [ -17.99611, 27.64323 ], [ -17.99616, 27.64344 ], [ -17.99607, 27.64363 ], [ -17.99603, 27.64379 ], [ -17.99604, 27.64466 ], [ -17.99642, 27.64493 ], [ -17.99663, 27.64533 ], [ -17.99726, 27.64482 ], [ -17.99729, 27.64498 ], [ -17.99695, 27.64533 ], [ -17.99713, 27.64555 ], [ -17.99737, 27.64589 ], [ -17.99838, 27.64658 ], [ -18.00079, 27.6472 ], [ -18.00243, 27.6474 ], [ -18.00387, 27.64825 ], [ -18.0042, 27.64829 ], [ -18.00433, 27.64796 ], [ -18.00449, 27.64838 ], [ -18.00554, 27.64881 ], [ -18.00724, 27.64895 ], [ -18.00735, 27.64882 ], [ -18.00749, 27.64904 ], [ -18.00808, 27.64897 ], [ -18.00937, 27.64935 ], [ -18.0093, 27.64959 ], [ -18.00946, 27.64963 ], [ -18.00992, 27.64983 ], [ -18.0101, 27.65126 ], [ -18.01055, 27.65192 ], [ -18.01122, 27.65256 ], [ -18.0114, 27.65257 ], [ -18.01138, 27.65273 ], [ -18.01175, 27.65309 ], [ -18.01215, 27.65315 ], [ -18.01223, 27.65348 ], [ -18.01346, 27.65449 ], [ -18.01434, 27.65432 ], [ -18.01396, 27.65475 ], [ -18.014, 27.65506 ], [ -18.01466, 27.65518 ], [ -18.01438, 27.65554 ], [ -18.01462, 27.65599 ], [ -18.01525, 27.65605 ], [ -18.01511, 27.65638 ], [ -18.01534, 27.65674 ], [ -18.01569, 27.65685 ], [ -18.0157, 27.65698 ], [ -18.01595, 27.65738 ], [ -18.01678, 27.65761 ], [ -18.0168, 27.65782 ], [ -18.0171, 27.65781 ], [ -18.01725, 27.65849 ], [ -18.01759, 27.65863 ], [ -18.01762, 27.65893 ], [ -18.01804, 27.65915 ], [ -18.01804, 27.65935 ], [ -18.01857, 27.65947 ], [ -18.01896, 27.66016 ], [ -18.01905, 27.66033 ], [ -18.01936, 27.66044 ], [ -18.01929, 27.66076 ], [ -18.01964, 27.66094 ], [ -18.0194, 27.66116 ], [ -18.01959, 27.66128 ], [ -18.01985, 27.66171 ], [ -18.01966, 27.66192 ], [ -18.01987, 27.66246 ], [ -18.01976, 27.66314 ], [ -18.02028, 27.66307 ], [ -18.02037, 27.66318 ], [ -18.01972, 27.6632 ], [ -18.01952, 27.66341 ], [ -18.01964, 27.66387 ], [ -18.0195, 27.66412 ], [ -18.01967, 27.66423 ], [ -18.0197, 27.6645 ], [ -18.01957, 27.66485 ], [ -18.01949, 27.66523 ], [ -18.01947, 27.66568 ], [ -18.01957, 27.66583 ], [ -18.01982, 27.66569 ], [ -18.02017, 27.66599 ], [ -18.02047, 27.66596 ], [ -18.02064, 27.6667 ], [ -18.02054, 27.66729 ], [ -18.0208, 27.66734 ], [ -18.02099, 27.66719 ], [ -18.02104, 27.66743 ], [ -18.02095, 27.66758 ], [ -18.02097, 27.66776 ], [ -18.02158, 27.66771 ], [ -18.02183, 27.66749 ], [ -18.02226, 27.66752 ], [ -18.02178, 27.66796 ], [ -18.02158, 27.66788 ], [ -18.0216, 27.66801 ], [ -18.02217, 27.66844 ], [ -18.02251, 27.6682 ], [ -18.02268, 27.66857 ], [ -18.02288, 27.66864 ], [ -18.0229, 27.66917 ], [ -18.0235, 27.66909 ], [ -18.0238, 27.66905 ], [ -18.02391, 27.66913 ], [ -18.02384, 27.66934 ], [ -18.02419, 27.66921 ], [ -18.02406, 27.66955 ], [ -18.02435, 27.66982 ], [ -18.02415, 27.6701 ], [ -18.02451, 27.6701 ], [ -18.02472, 27.67038 ], [ -18.025, 27.67091 ], [ -18.02513, 27.67092 ], [ -18.02529, 27.67059 ], [ -18.02571, 27.67046 ], [ -18.02572, 27.6702 ], [ -18.02617, 27.67051 ], [ -18.02623, 27.67077 ], [ -18.02654, 27.67055 ], [ -18.02662, 27.67034 ], [ -18.02647, 27.67025 ], [ -18.02666, 27.67017 ], [ -18.02681, 27.6703 ], [ -18.02687, 27.67082 ], [ -18.02726, 27.67087 ], [ -18.02753, 27.67112 ], [ -18.02739, 27.67146 ], [ -18.02774, 27.67151 ], [ -18.02814, 27.6713 ], [ -18.02845, 27.67151 ], [ -18.0282, 27.67178 ], [ -18.02827, 27.67196 ], [ -18.02811, 27.672 ], [ -18.02821, 27.67215 ], [ -18.02796, 27.67249 ], [ -18.02787, 27.67294 ], [ -18.02786, 27.67314 ], [ -18.02818, 27.67316 ], [ -18.02826, 27.6736 ], [ -18.0285, 27.67356 ], [ -18.02863, 27.67371 ], [ -18.02872, 27.67386 ], [ -18.02842, 27.674 ], [ -18.0283, 27.6742 ], [ -18.02795, 27.67461 ], [ -18.02792, 27.67495 ], [ -18.02812, 27.67516 ], [ -18.02797, 27.67547 ], [ -18.02788, 27.67566 ], [ -18.02793, 27.67601 ], [ -18.02799, 27.67627 ], [ -18.02871, 27.67625 ], [ -18.02819, 27.67684 ], [ -18.02771, 27.67698 ], [ -18.028, 27.67735 ], [ -18.02843, 27.6775 ], [ -18.02846, 27.67775 ], [ -18.02831, 27.67784 ], [ -18.02857, 27.67782 ], [ -18.02853, 27.67838 ], [ -18.02894, 27.67886 ], [ -18.02967, 27.67928 ], [ -18.03019, 27.67886 ], [ -18.0305, 27.67947 ], [ -18.03057, 27.67913 ], [ -18.03074, 27.67913 ], [ -18.0311, 27.6797 ], [ -18.03111, 27.6794 ], [ -18.03152, 27.67938 ], [ -18.03166, 27.67961 ], [ -18.03146, 27.68006 ], [ -18.03178, 27.68011 ], [ -18.03197, 27.67988 ], [ -18.03215, 27.68 ], [ -18.03207, 27.68015 ], [ -18.03215, 27.68037 ], [ -18.03225, 27.68047 ], [ -18.03213, 27.68064 ], [ -18.03244, 27.68075 ], [ -18.03214, 27.68079 ], [ -18.0322, 27.68101 ], [ -18.0324, 27.68131 ], [ -18.03257, 27.68125 ], [ -18.03259, 27.68161 ], [ -18.03286, 27.68193 ], [ -18.03306, 27.68207 ], [ -18.0331, 27.68221 ], [ -18.0339, 27.6827 ], [ -18.03424, 27.68316 ], [ -18.03478, 27.68383 ], [ -18.03546, 27.68419 ], [ -18.03589, 27.68473 ], [ -18.03778, 27.68629 ], [ -18.03847, 27.68672 ], [ -18.03861, 27.68676 ], [ -18.03976, 27.68728 ], [ -18.04198, 27.68793 ], [ -18.04234, 27.68796 ], [ -18.04255, 27.68814 ], [ -18.04357, 27.68862 ], [ -18.04384, 27.68856 ], [ -18.04387, 27.68879 ], [ -18.04418, 27.68872 ], [ -18.04417, 27.68893 ], [ -18.04504, 27.68937 ], [ -18.04578, 27.68957 ], [ -18.04628, 27.68992 ], [ -18.04639, 27.68985 ], [ -18.04702, 27.69027 ], [ -18.04726, 27.69032 ], [ -18.04733, 27.69045 ], [ -18.04768, 27.69041 ], [ -18.04762, 27.69055 ], [ -18.04785, 27.69053 ], [ -18.04803, 27.69074 ], [ -18.04822, 27.69093 ], [ -18.04895, 27.69138 ], [ -18.04962, 27.6921 ], [ -18.05006, 27.69219 ], [ -18.05041, 27.69195 ], [ -18.05012, 27.6925 ], [ -18.05034, 27.69271 ], [ -18.05052, 27.69274 ], [ -18.05118, 27.69281 ], [ -18.05165, 27.6925 ], [ -18.05176, 27.69278 ], [ -18.05213, 27.69286 ], [ -18.05225, 27.69292 ], [ -18.05277, 27.69272 ], [ -18.05278, 27.69291 ], [ -18.05339, 27.69297 ], [ -18.05359, 27.69315 ], [ -18.0538, 27.69292 ], [ -18.0538, 27.69331 ], [ -18.05415, 27.69307 ], [ -18.05436, 27.69315 ], [ -18.0543, 27.69336 ], [ -18.05488, 27.69348 ], [ -18.05495, 27.69366 ], [ -18.05623, 27.69428 ], [ -18.05935, 27.69489 ], [ -18.05985, 27.69479 ], [ -18.06006, 27.69479 ], [ -18.06033, 27.69449 ], [ -18.06039, 27.69483 ], [ -18.06092, 27.69489 ], [ -18.06156, 27.69455 ], [ -18.06197, 27.69439 ], [ -18.06193, 27.69458 ], [ -18.06218, 27.69466 ], [ -18.06258, 27.69436 ], [ -18.06247, 27.6947 ], [ -18.06332, 27.69501 ], [ -18.06394, 27.69499 ], [ -18.06427, 27.69523 ], [ -18.06454, 27.6952 ], [ -18.06464, 27.69525 ], [ -18.06633, 27.69549 ], [ -18.06646, 27.69564 ], [ -18.06669, 27.69557 ], [ -18.06718, 27.69586 ], [ -18.06744, 27.69573 ], [ -18.06747, 27.69603 ], [ -18.0679, 27.69617 ], [ -18.06823, 27.69588 ], [ -18.0682, 27.6962 ], [ -18.06859, 27.6964 ], [ -18.069, 27.696 ], [ -18.06898, 27.69617 ], [ -18.06917, 27.69603 ], [ -18.06953, 27.69607 ], [ -18.06958, 27.69642 ], [ -18.07185, 27.69705 ], [ -18.07395, 27.69711 ], [ -18.07486, 27.6973 ], [ -18.07499, 27.69728 ], [ -18.07531, 27.69733 ], [ -18.07669, 27.6972 ], [ -18.07786, 27.69732 ], [ -18.08312, 27.69697 ], [ -18.08485, 27.69737 ], [ -18.08517, 27.69723 ], [ -18.08517, 27.69746 ], [ -18.08575, 27.69765 ], [ -18.09057, 27.69845 ], [ -18.09477, 27.69973 ], [ -18.09543, 27.70011 ], [ -18.09599, 27.70013 ], [ -18.09652, 27.70051 ], [ -18.0993, 27.70123 ], [ -18.10143, 27.70101 ], [ -18.10431, 27.70142 ], [ -18.10538, 27.7014 ], [ -18.1059, 27.70119 ], [ -18.10578, 27.70094 ], [ -18.10589, 27.70065 ], [ -18.10618, 27.70086 ], [ -18.10655, 27.70062 ], [ -18.10688, 27.70095 ], [ -18.10724, 27.70085 ], [ -18.10735, 27.70065 ], [ -18.10744, 27.70105 ], [ -18.10773, 27.7011 ], [ -18.10788, 27.7009 ], [ -18.10797, 27.70119 ], [ -18.10851, 27.70144 ], [ -18.10952, 27.70169 ], [ -18.10958, 27.70169 ], [ -18.11107, 27.70235 ], [ -18.11131, 27.70236 ], [ -18.11137, 27.70216 ], [ -18.11248, 27.70255 ], [ -18.11529, 27.70301 ], [ -18.11832, 27.70396 ], [ -18.11919, 27.70409 ], [ -18.12098, 27.70437 ], [ -18.12179, 27.70433 ], [ -18.12477, 27.70521 ], [ -18.12568, 27.70522 ], [ -18.12653, 27.70504 ], [ -18.1281, 27.70525 ], [ -18.12868, 27.70498 ], [ -18.13039, 27.70482 ], [ -18.13059, 27.70466 ], [ -18.13069, 27.70477 ], [ -18.13077, 27.70466 ], [ -18.13156, 27.70465 ], [ -18.13169, 27.70484 ], [ -18.1327, 27.70464 ], [ -18.13309, 27.70475 ], [ -18.13314, 27.70451 ], [ -18.13344, 27.70459 ], [ -18.13331, 27.70417 ], [ -18.13375, 27.70441 ], [ -18.13387, 27.70453 ], [ -18.1341, 27.7045 ], [ -18.13438, 27.70422 ], [ -18.13437, 27.70395 ], [ -18.13473, 27.7042 ], [ -18.13485, 27.70406 ], [ -18.13506, 27.70399 ], [ -18.13639, 27.70337 ], [ -18.13693, 27.70325 ], [ -18.13701, 27.70336 ], [ -18.13736, 27.70337 ], [ -18.13775, 27.70332 ], [ -18.1378, 27.70316 ], [ -18.13797, 27.70331 ], [ -18.13818, 27.70317 ], [ -18.13857, 27.7035 ], [ -18.139, 27.70338 ], [ -18.13931, 27.70361 ], [ -18.14005, 27.70355 ], [ -18.14025, 27.7037 ], [ -18.14046, 27.70355 ], [ -18.14061, 27.70391 ], [ -18.14092, 27.7037 ], [ -18.14109, 27.7036 ], [ -18.14123, 27.70386 ], [ -18.14172, 27.70386 ], [ -18.14184, 27.7037 ], [ -18.14229, 27.70383 ], [ -18.14246, 27.70377 ], [ -18.14259, 27.70363 ], [ -18.14281, 27.70381 ], [ -18.14349, 27.7038 ], [ -18.14359, 27.70364 ], [ -18.14383, 27.70381 ], [ -18.14393, 27.70352 ], [ -18.14436, 27.70366 ], [ -18.14469, 27.70403 ], [ -18.14512, 27.70372 ], [ -18.14516, 27.70392 ], [ -18.14598, 27.70381 ], [ -18.14668, 27.70448 ], [ -18.14705, 27.70462 ], [ -18.14716, 27.70456 ], [ -18.14815, 27.70479 ], [ -18.14784, 27.70498 ], [ -18.14802, 27.70546 ], [ -18.14832, 27.70574 ], [ -18.14846, 27.70579 ], [ -18.14861, 27.70616 ], [ -18.14935, 27.7071 ], [ -18.14995, 27.70748 ], [ -18.14987, 27.70769 ], [ -18.15013, 27.70762 ], [ -18.15051, 27.70803 ], [ -18.15217, 27.7084 ], [ -18.15233, 27.70844 ], [ -18.15309, 27.70871 ], [ -18.15312, 27.70887 ], [ -18.15348, 27.70903 ], [ -18.15374, 27.70886 ], [ -18.15395, 27.70922 ], [ -18.15426, 27.70908 ], [ -18.15425, 27.70934 ], [ -18.15436, 27.70954 ], [ -18.15446, 27.70974 ], [ -18.15481, 27.70992 ], [ -18.15536, 27.70982 ], [ -18.15513, 27.71032 ], [ -18.15529, 27.71026 ], [ -18.15539, 27.71066 ], [ -18.1557, 27.71059 ], [ -18.15569, 27.71086 ], [ -18.15634, 27.71084 ], [ -18.15674, 27.71064 ], [ -18.15617, 27.71135 ], [ -18.15663, 27.71144 ], [ -18.15677, 27.71172 ], [ -18.15722, 27.71124 ], [ -18.1575, 27.71126 ], [ -18.157, 27.71166 ], [ -18.1571, 27.71172 ], [ -18.15705, 27.71177 ], [ -18.15696, 27.71186 ], [ -18.15753, 27.71205 ], [ -18.15748, 27.71232 ], [ -18.15774, 27.71242 ], [ -18.15783, 27.71278 ], [ -18.15818, 27.71338 ], [ -18.15834, 27.71368 ], [ -18.15877, 27.71413 ], [ -18.15904, 27.71421 ], [ -18.15877, 27.71461 ], [ -18.15942, 27.71462 ], [ -18.15934, 27.71499 ], [ -18.15952, 27.71507 ], [ -18.15948, 27.71522 ], [ -18.15987, 27.71525 ], [ -18.1601, 27.71543 ], [ -18.16007, 27.71572 ], [ -18.15987, 27.7159 ], [ -18.16077, 27.71636 ], [ -18.16055, 27.7168 ], [ -18.16083, 27.71697 ], [ -18.16059, 27.71762 ], [ -18.1606, 27.71856 ], [ -18.16008, 27.71916 ], [ -18.16, 27.71969 ], [ -18.15998, 27.72125 ], [ -18.16012, 27.72147 ], [ -18.15985, 27.72171 ], [ -18.16009, 27.72191 ], [ -18.15978, 27.72221 ], [ -18.16007, 27.7225 ], [ -18.15951, 27.72271 ], [ -18.1599, 27.72316 ], [ -18.15977, 27.72325 ], [ -18.15981, 27.72357 ], [ -18.16018, 27.7238 ], [ -18.15965, 27.72397 ], [ -18.15976, 27.72441 ], [ -18.15958, 27.72507 ], [ -18.16034, 27.7256 ], [ -18.15932, 27.72533 ], [ -18.15918, 27.72583 ], [ -18.15884, 27.72607 ], [ -18.15862, 27.72609 ], [ -18.15822, 27.72619 ], [ -18.1593, 27.72737 ], [ -18.15846, 27.72723 ], [ -18.15801, 27.72762 ], [ -18.1585, 27.72779 ], [ -18.15833, 27.72784 ], [ -18.15835, 27.72806 ], [ -18.15849, 27.72808 ], [ -18.15871, 27.72845 ], [ -18.15851, 27.72873 ], [ -18.15899, 27.72892 ], [ -18.15911, 27.72938 ], [ -18.15785, 27.72858 ], [ -18.15715, 27.72865 ], [ -18.15708, 27.72899 ], [ -18.15715, 27.72938 ], [ -18.15713, 27.72962 ], [ -18.157, 27.72939 ], [ -18.15703, 27.73002 ], [ -18.15683, 27.73002 ], [ -18.15677, 27.73013 ], [ -18.15657, 27.72963 ], [ -18.15596, 27.7298 ], [ -18.15577, 27.72944 ], [ -18.15557, 27.72959 ], [ -18.15553, 27.72927 ], [ -18.15529, 27.72942 ], [ -18.15529, 27.72921 ], [ -18.15463, 27.72935 ], [ -18.15475, 27.72965 ], [ -18.15446, 27.72955 ], [ -18.15461, 27.72978 ], [ -18.15451, 27.72989 ], [ -18.15402, 27.72988 ], [ -18.15379, 27.7295 ], [ -18.15354, 27.7295 ], [ -18.15277, 27.73027 ], [ -18.15174, 27.7324 ], [ -18.15186, 27.73379 ], [ -18.15236, 27.73557 ], [ -18.15218, 27.73598 ], [ -18.15243, 27.73622 ], [ -18.15205, 27.73644 ], [ -18.15205, 27.73989 ], [ -18.15154, 27.7417 ], [ -18.15133, 27.74371 ], [ -18.1514, 27.74475 ], [ -18.15185, 27.7452 ], [ -18.15222, 27.74515 ], [ -18.15173, 27.74546 ], [ -18.15161, 27.74585 ], [ -18.15161, 27.74764 ], [ -18.15207, 27.74845 ], [ -18.15266, 27.7488 ], [ -18.15293, 27.74894 ], [ -18.15402, 27.74974 ], [ -18.15445, 27.74992 ], [ -18.15465, 27.74983 ], [ -18.15446, 27.75014 ], [ -18.15474, 27.75003 ], [ -18.15486, 27.75016 ], [ -18.15476, 27.75036 ], [ -18.15541, 27.75028 ], [ -18.15538, 27.75045 ], [ -18.15484, 27.75064 ], [ -18.15497, 27.7509 ], [ -18.15516, 27.75118 ], [ -18.15527, 27.75164 ], [ -18.15507, 27.75159 ], [ -18.15501, 27.75184 ], [ -18.15517, 27.752 ], [ -18.15474, 27.75209 ], [ -18.1551, 27.75256 ], [ -18.1546, 27.75243 ], [ -18.15468, 27.75275 ], [ -18.15436, 27.75284 ], [ -18.15436, 27.75309 ], [ -18.15436, 27.75339 ], [ -18.15418, 27.75354 ], [ -18.15452, 27.75329 ], [ -18.15509, 27.75355 ], [ -18.1549, 27.75362 ], [ -18.15503, 27.75367 ], [ -18.15494, 27.75385 ], [ -18.1543, 27.7539 ], [ -18.15434, 27.7547 ], [ -18.15407, 27.75492 ], [ -18.15436, 27.7553 ], [ -18.15354, 27.75549 ], [ -18.15397, 27.75576 ], [ -18.15396, 27.75591 ], [ -18.15342, 27.75587 ], [ -18.15336, 27.75575 ], [ -18.15306, 27.75596 ], [ -18.15355, 27.75634 ], [ -18.15335, 27.75683 ], [ -18.15358, 27.75694 ], [ -18.15258, 27.75696 ], [ -18.15258, 27.75726 ], [ -18.15209, 27.75723 ], [ -18.15204, 27.75744 ], [ -18.15233, 27.75754 ], [ -18.15224, 27.75809 ], [ -18.15113, 27.75783 ], [ -18.15108, 27.75798 ], [ -18.15108, 27.75822 ], [ -18.151, 27.75829 ], [ -18.15079, 27.75842 ], [ -18.15047, 27.75835 ], [ -18.15084, 27.75862 ], [ -18.15088, 27.7592 ], [ -18.15137, 27.76009 ], [ -18.15157, 27.76006 ], [ -18.15158, 27.76057 ], [ -18.15144, 27.76058 ], [ -18.1512, 27.76015 ], [ -18.15052, 27.75986 ], [ -18.14994, 27.75987 ], [ -18.14976, 27.76049 ], [ -18.14897, 27.76021 ], [ -18.14878, 27.75996 ], [ -18.14792, 27.75983 ], [ -18.14766, 27.75997 ], [ -18.14754, 27.75962 ], [ -18.14716, 27.75951 ], [ -18.14686, 27.75961 ], [ -18.14653, 27.76033 ], [ -18.14673, 27.76088 ], [ -18.14665, 27.76132 ], [ -18.14653, 27.76135 ], [ -18.14611, 27.76079 ], [ -18.14555, 27.76115 ], [ -18.14551, 27.76148 ], [ -18.14509, 27.76175 ], [ -18.1449, 27.76144 ], [ -18.14477, 27.76145 ], [ -18.14472, 27.7618 ], [ -18.14447, 27.76275 ], [ -18.14424, 27.76252 ], [ -18.14356, 27.76235 ], [ -18.14375, 27.76193 ], [ -18.14413, 27.76194 ], [ -18.14393, 27.76169 ], [ -18.14335, 27.76192 ], [ -18.14317, 27.76218 ], [ -18.1437, 27.76294 ], [ -18.14278, 27.76285 ], [ -18.14169, 27.76228 ], [ -18.14178, 27.76265 ], [ -18.14129, 27.76237 ], [ -18.14075, 27.76262 ], [ -18.13983, 27.76349 ], [ -18.13995, 27.7639 ], [ -18.13966, 27.76399 ], [ -18.13955, 27.7644 ], [ -18.13982, 27.76481 ], [ -18.13966, 27.76505 ], [ -18.13959, 27.76527 ], [ -18.14059, 27.76606 ], [ -18.1399, 27.76582 ], [ -18.13974, 27.76604 ], [ -18.14014, 27.76644 ], [ -18.13951, 27.76614 ], [ -18.13906, 27.7657 ], [ -18.13841, 27.76589 ], [ -18.13816, 27.76615 ], [ -18.13782, 27.7662 ], [ -18.13796, 27.76639 ], [ -18.13774, 27.76682 ], [ -18.13793, 27.76723 ], [ -18.13757, 27.76695 ], [ -18.13713, 27.76703 ], [ -18.13674, 27.76691 ], [ -18.13656, 27.7665 ], [ -18.13647, 27.76704 ], [ -18.13623, 27.76708 ], [ -18.13605, 27.76725 ], [ -18.13568, 27.7676 ], [ -18.13581, 27.76791 ], [ -18.13535, 27.76797 ], [ -18.13566, 27.76848 ], [ -18.13518, 27.76828 ], [ -18.13483, 27.76847 ], [ -18.13485, 27.76883 ], [ -18.13453, 27.76917 ], [ -18.13456, 27.76946 ], [ -18.13423, 27.76979 ], [ -18.13372, 27.76994 ], [ -18.13397, 27.77008 ], [ -18.13386, 27.77025 ], [ -18.13326, 27.77041 ], [ -18.13327, 27.77064 ], [ -18.13277, 27.77013 ], [ -18.13237, 27.77028 ], [ -18.13221, 27.77045 ], [ -18.13248, 27.77083 ], [ -18.13235, 27.77103 ], [ -18.13247, 27.77117 ], [ -18.13224, 27.77132 ], [ -18.13193, 27.77106 ], [ -18.13174, 27.77104 ], [ -18.13129, 27.77087 ], [ -18.13097, 27.77063 ], [ -18.13041, 27.77029 ], [ -18.13028, 27.77036 ], [ -18.13032, 27.77074 ], [ -18.13055, 27.77099 ], [ -18.13007, 27.7712 ], [ -18.12964, 27.77084 ], [ -18.12919, 27.77097 ], [ -18.12891, 27.77065 ], [ -18.12851, 27.77081 ], [ -18.12805, 27.7703 ], [ -18.12736, 27.77061 ], [ -18.12713, 27.77056 ], [ -18.12709, 27.77024 ], [ -18.12678, 27.77006 ], [ -18.12647, 27.77008 ], [ -18.12633, 27.77012 ], [ -18.12566, 27.76982 ], [ -18.12513, 27.76931 ], [ -18.12441, 27.76912 ], [ -18.1241, 27.76894 ], [ -18.1234, 27.76895 ], [ -18.12286, 27.76866 ], [ -18.12241, 27.76872 ], [ -18.1219, 27.76879 ], [ -18.12176, 27.76889 ], [ -18.12181, 27.76932 ], [ -18.12144, 27.76918 ], [ -18.12152, 27.76864 ], [ -18.12121, 27.7684 ], [ -18.12148, 27.76818 ], [ -18.12115, 27.7681 ], [ -18.1211, 27.76752 ], [ -18.12125, 27.76735 ], [ -18.12131, 27.767 ], [ -18.12107, 27.76622 ], [ -18.12106, 27.76524 ], [ -18.12128, 27.76512 ], [ -18.12101, 27.76469 ], [ -18.12054, 27.76405 ], [ -18.1199, 27.76346 ], [ -18.1187, 27.76196 ], [ -18.11733, 27.76148 ], [ -18.11624, 27.7606 ], [ -18.11381, 27.75934 ], [ -18.11362, 27.75934 ], [ -18.11341, 27.75931 ], [ -18.11248, 27.75934 ], [ -18.11237, 27.75928 ], [ -18.11199, 27.75911 ], [ -18.11182, 27.75926 ], [ -18.11166, 27.75919 ], [ -18.11134, 27.75859 ], [ -18.11113, 27.75876 ], [ -18.11072, 27.75867 ], [ -18.11053, 27.75891 ], [ -18.11057, 27.7586 ], [ -18.11035, 27.75871 ], [ -18.11023, 27.7582 ], [ -18.10943, 27.75852 ], [ -18.10929, 27.75807 ], [ -18.10788, 27.75778 ], [ -18.10561, 27.75656 ], [ -18.10531, 27.75663 ], [ -18.10511, 27.75647 ], [ -18.10454, 27.7566 ], [ -18.10444, 27.75676 ], [ -18.10314, 27.75635 ], [ -18.10303, 27.75709 ], [ -18.10275, 27.75667 ], [ -18.10288, 27.7564 ], [ -18.10261, 27.75613 ], [ -18.10171, 27.75635 ], [ -18.1014, 27.75631 ], [ -18.10136, 27.75659 ], [ -18.10102, 27.75656 ], [ -18.10074, 27.75647 ], [ -18.10046, 27.75645 ], [ -18.10007, 27.75653 ], [ -18.09966, 27.7563 ], [ -18.09903, 27.75635 ], [ -18.09876, 27.75649 ], [ -18.09846, 27.75587 ], [ -18.0968, 27.75546 ], [ -18.09567, 27.75552 ], [ -18.0942, 27.75519 ], [ -18.09343, 27.75493 ], [ -18.09255, 27.75496 ], [ -18.09148, 27.75463 ], [ -18.0909, 27.75479 ], [ -18.09077, 27.75537 ], [ -18.09046, 27.75553 ], [ -18.08958, 27.75483 ], [ -18.08921, 27.75493 ], [ -18.0889, 27.75523 ], [ -18.08863, 27.75523 ], [ -18.0883, 27.75506 ], [ -18.08836, 27.75485 ], [ -18.08814, 27.75446 ], [ -18.08753, 27.75472 ], [ -18.08721, 27.75471 ], [ -18.08655, 27.75457 ], [ -18.08652, 27.75405 ], [ -18.0851, 27.75389 ], [ -18.08488, 27.75398 ], [ -18.08473, 27.75379 ], [ -18.08429, 27.7536 ], [ -18.08389, 27.7535 ], [ -18.0837, 27.75346 ], [ -18.08332, 27.7534 ], [ -18.08226, 27.75314 ], [ -18.08192, 27.7532 ], [ -18.0816, 27.75322 ], [ -18.07914, 27.75345 ], [ -18.0785, 27.7531 ], [ -18.07705, 27.75289 ], [ -18.07614, 27.75306 ], [ -18.0761, 27.75354 ], [ -18.07585, 27.75356 ], [ -18.07563, 27.75336 ], [ -18.07542, 27.75355 ], [ -18.07514, 27.75307 ], [ -18.07462, 27.75316 ], [ -18.07425, 27.75285 ], [ -18.07298, 27.75297 ], [ -18.07257, 27.75322 ], [ -18.07237, 27.75297 ], [ -18.07211, 27.7533 ], [ -18.07174, 27.75296 ], [ -18.07154, 27.75299 ], [ -18.07153, 27.75323 ], [ -18.07129, 27.75346 ], [ -18.07096, 27.75313 ], [ -18.07069, 27.75339 ], [ -18.07054, 27.75319 ], [ -18.07018, 27.75322 ], [ -18.06953, 27.75359 ], [ -18.06827, 27.75397 ], [ -18.06709, 27.75406 ], [ -18.06596, 27.75448 ], [ -18.06438, 27.75463 ], [ -18.06375, 27.75496 ], [ -18.06338, 27.75552 ], [ -18.06308, 27.75522 ], [ -18.06237, 27.7554 ], [ -18.06227, 27.75567 ], [ -18.06186, 27.75571 ], [ -18.06167, 27.75554 ], [ -18.06156, 27.75586 ], [ -18.06102, 27.75572 ], [ -18.06009, 27.75603 ], [ -18.05964, 27.75659 ], [ -18.05939, 27.75645 ], [ -18.0585, 27.75688 ], [ -18.05831, 27.75822 ], [ -18.05778, 27.75818 ], [ -18.05755, 27.75793 ], [ -18.05743, 27.75801 ], [ -18.05724, 27.758 ], [ -18.05633, 27.75819 ], [ -18.05594, 27.75825 ], [ -18.05541, 27.75851 ], [ -18.05557, 27.75903 ], [ -18.05519, 27.75874 ], [ -18.05505, 27.75901 ], [ -18.05468, 27.75857 ], [ -18.05333, 27.75882 ], [ -18.0532, 27.75913 ], [ -18.05259, 27.75879 ], [ -18.05241, 27.75888 ], [ -18.05187, 27.75906 ], [ -18.05162, 27.75916 ], [ -18.05126, 27.75914 ], [ -18.05044, 27.75949 ], [ -18.05023, 27.75972 ], [ -18.05013, 27.75974 ], [ -18.0494, 27.76023 ], [ -18.04815, 27.76006 ], [ -18.04779, 27.76003 ], [ -18.0475, 27.76006 ], [ -18.04726, 27.76021 ], [ -18.04709, 27.76048 ], [ -18.0467, 27.7605 ], [ -18.04581, 27.76082 ], [ -18.04562, 27.76106 ], [ -18.04548, 27.76109 ], [ -18.04534, 27.76113 ], [ -18.04512, 27.76132 ], [ -18.04493, 27.76099 ], [ -18.04446, 27.76129 ], [ -18.0419, 27.76126 ], [ -18.04031, 27.76184 ], [ -18.04016, 27.76193 ], [ -18.03959, 27.76222 ], [ -18.03955, 27.76203 ], [ -18.03941, 27.76217 ], [ -18.03903, 27.76211 ], [ -18.03879, 27.76246 ], [ -18.03853, 27.76218 ], [ -18.03711, 27.76203 ], [ -18.03655, 27.76202 ], [ -18.03586, 27.76254 ], [ -18.03574, 27.76275 ], [ -18.03545, 27.76313 ], [ -18.03549, 27.76364 ], [ -18.03493, 27.76384 ], [ -18.03435, 27.76444 ], [ -18.03408, 27.76437 ], [ -18.03413, 27.76474 ], [ -18.0336, 27.76501 ], [ -18.03357, 27.76551 ], [ -18.0333, 27.76609 ], [ -18.03296, 27.76581 ], [ -18.03251, 27.76593 ], [ -18.03237, 27.76626 ], [ -18.03233, 27.76653 ], [ -18.03264, 27.76718 ], [ -18.03197, 27.76675 ], [ -18.0316, 27.76683 ], [ -18.0311, 27.76711 ], [ -18.03064, 27.76737 ], [ -18.03031, 27.76772 ], [ -18.02986, 27.76795 ], [ -18.02944, 27.76808 ], [ -18.02957, 27.76872 ], [ -18.0291, 27.76856 ], [ -18.02883, 27.76865 ], [ -18.02844, 27.76931 ], [ -18.0286, 27.77026 ], [ -18.02788, 27.77018 ], [ -18.02771, 27.76997 ], [ -18.02722, 27.76976 ], [ -18.02718, 27.7703 ], [ -18.0262, 27.77027 ], [ -18.02582, 27.77053 ], [ -18.02547, 27.77075 ], [ -18.0248, 27.77097 ], [ -18.0223, 27.77247 ], [ -18.02187, 27.77261 ], [ -18.01869, 27.77497 ], [ -18.0186, 27.77542 ], [ -18.0183, 27.77546 ], [ -18.01796, 27.77578 ], [ -18.01773, 27.77716 ], [ -18.01701, 27.77731 ], [ -18.01652, 27.7777 ], [ -18.01651, 27.77867 ], [ -18.01669, 27.779 ], [ -18.01645, 27.77948 ], [ -18.01658, 27.7802 ], [ -18.01651, 27.7803 ], [ -18.01632, 27.78002 ], [ -18.01609, 27.78004 ], [ -18.01522, 27.78056 ], [ -18.01482, 27.78143 ], [ -18.01513, 27.78162 ], [ -18.01527, 27.78199 ], [ -18.01465, 27.78306 ], [ -18.01406, 27.78306 ], [ -18.01387, 27.78335 ], [ -18.01351, 27.78322 ], [ -18.01308, 27.78351 ], [ -18.01251, 27.78349 ], [ -18.0123, 27.78373 ], [ -18.01225, 27.78405 ], [ -18.01208, 27.78412 ], [ -18.01221, 27.78421 ], [ -18.01195, 27.78443 ], [ -18.01196, 27.78465 ], [ -18.01137, 27.78475 ], [ -18.01096, 27.78463 ], [ -18.01051, 27.78488 ], [ -18.01082, 27.78559 ], [ -18.01071, 27.78568 ], [ -18.01021, 27.78541 ], [ -18.00939, 27.78579 ], [ -18.0084, 27.78675 ], [ -18.00663, 27.78781 ], [ -18.00617, 27.7888 ], [ -18.00424, 27.78892 ], [ -18.00348, 27.78912 ], [ -18.00278, 27.78947 ], [ -18.00249, 27.7895 ], [ -18.00235, 27.7896 ], [ -18.00185, 27.7894 ], [ -18.00195, 27.78975 ], [ -18.00172, 27.79003 ], [ -18.00202, 27.79021 ], [ -18.00195, 27.79088 ], [ -18.00122, 27.79074 ], [ -18.00081, 27.7904 ], [ -18.00076, 27.79017 ], [ -18.00066, 27.79034 ], [ -18.00081, 27.79079 ], [ -18.00059, 27.79115 ], [ -17.99967, 27.79012 ], [ -17.99932, 27.79025 ], [ -17.99931, 27.79086 ], [ -17.99898, 27.79056 ], [ -17.99787, 27.79078 ], [ -17.99721, 27.79135 ], [ -17.99746, 27.79163 ], [ -17.99741, 27.79174 ], [ -17.99723, 27.79157 ], [ -17.99735, 27.79188 ], [ -17.997, 27.79174 ], [ -17.99679, 27.79185 ], [ -17.99697, 27.79259 ], [ -17.9959, 27.79246 ], [ -17.99555, 27.7927 ], [ -17.99592, 27.79295 ], [ -17.99611, 27.79354 ], [ -17.99565, 27.79339 ], [ -17.99544, 27.79303 ], [ -17.99529, 27.79303 ], [ -17.99481, 27.79333 ], [ -17.99486, 27.7938 ], [ -17.99432, 27.79395 ], [ -17.99413, 27.79395 ], [ -17.99298, 27.79476 ], [ -17.99312, 27.79491 ], [ -17.99296, 27.7953 ], [ -17.99266, 27.79558 ], [ -17.99257, 27.79576 ], [ -17.99255, 27.79615 ], [ -17.99234, 27.79632 ], [ -17.99168, 27.79626 ], [ -17.992, 27.79663 ], [ -17.9915, 27.79688 ], [ -17.99229, 27.79708 ], [ -17.99267, 27.79761 ], [ -17.99214, 27.79747 ], [ -17.99193, 27.79706 ], [ -17.99145, 27.79703 ], [ -17.99148, 27.798 ], [ -17.99128, 27.7982 ], [ -17.99086, 27.79791 ], [ -17.99073, 27.798 ], [ -17.99045, 27.7979 ], [ -17.99034, 27.79802 ], [ -17.99053, 27.79812 ], [ -17.99021, 27.79831 ], [ -17.9904, 27.79852 ], [ -17.99034, 27.79871 ], [ -17.99067, 27.79896 ], [ -17.99023, 27.79881 ], [ -17.99015, 27.79864 ], [ -17.98999, 27.79866 ], [ -17.9898, 27.79864 ], [ -17.99021, 27.79937 ], [ -17.98957, 27.79925 ], [ -17.98935, 27.79944 ], [ -17.98909, 27.79987 ], [ -17.9889, 27.8004 ], [ -17.989, 27.80079 ], [ -17.98883, 27.8009 ], [ -17.98868, 27.8011 ], [ -17.98853, 27.80156 ], [ -17.98777, 27.80268 ], [ -17.98695, 27.80505 ], [ -17.9864, 27.80738 ], [ -17.98667, 27.80869 ], [ -17.98654, 27.80959 ], [ -17.98745, 27.81266 ], [ -17.98855, 27.81485 ], [ -17.98884, 27.81503 ], [ -17.98884, 27.81542 ], [ -17.98917, 27.81551 ], [ -17.98948, 27.81788 ], [ -17.98971, 27.81792 ], [ -17.99027, 27.81921 ], [ -17.99121, 27.81995 ], [ -17.99097, 27.82047 ], [ -17.99105, 27.82072 ], [ -17.99143, 27.82097 ], [ -17.99139, 27.82136 ], [ -17.99209, 27.82164 ], [ -17.99195, 27.82196 ], [ -17.9917, 27.82252 ], [ -17.99146, 27.82215 ], [ -17.9912, 27.82237 ], [ -17.99107, 27.82235 ], [ -17.99109, 27.8222 ], [ -17.99073, 27.82217 ], [ -17.99059, 27.82231 ], [ -17.99042, 27.8222 ], [ -17.99005, 27.82233 ], [ -17.98965, 27.82215 ], [ -17.98954, 27.82183 ], [ -17.98883, 27.82197 ], [ -17.98865, 27.82149 ], [ -17.98872, 27.82125 ], [ -17.98837, 27.8211 ], [ -17.98791, 27.82114 ], [ -17.98569, 27.82205 ], [ -17.98519, 27.82218 ], [ -17.98477, 27.82217 ], [ -17.98404, 27.82252 ], [ -17.98349, 27.82301 ], [ -17.98326, 27.82354 ], [ -17.9829, 27.82387 ], [ -17.98303, 27.82416 ], [ -17.9827, 27.8249 ], [ -17.98281, 27.82495 ], [ -17.98294, 27.82465 ], [ -17.98312, 27.82479 ], [ -17.98273, 27.82538 ], [ -17.98258, 27.82536 ], [ -17.98247, 27.82501 ], [ -17.98262, 27.82479 ], [ -17.98224, 27.82475 ], [ -17.98213, 27.8246 ], [ -17.9809, 27.82493 ], [ -17.98069, 27.82498 ], [ -17.98038, 27.82505 ], [ -17.97933, 27.82512 ], [ -17.97796, 27.82557 ], [ -17.97664, 27.82552 ], [ -17.97611, 27.82586 ], [ -17.97551, 27.82587 ], [ -17.97486, 27.82623 ], [ -17.97413, 27.82658 ], [ -17.97301, 27.82729 ], [ -17.97213, 27.82754 ], [ -17.97192, 27.82779 ], [ -17.97197, 27.82809 ], [ -17.97186, 27.82825 ], [ -17.97171, 27.82867 ], [ -17.97193, 27.82888 ], [ -17.97163, 27.8296 ], [ -17.97087, 27.8297 ], [ -17.96941, 27.83097 ], [ -17.96883, 27.83103 ], [ -17.96855, 27.83114 ], [ -17.96883, 27.83152 ], [ -17.96879, 27.83183 ], [ -17.96846, 27.83164 ], [ -17.96826, 27.83191 ], [ -17.96782, 27.83203 ], [ -17.96661, 27.83307 ], [ -17.96646, 27.83324 ], [ -17.96654, 27.83362 ], [ -17.96609, 27.83408 ], [ -17.96656, 27.83447 ], [ -17.96634, 27.83456 ], [ -17.96609, 27.83431 ], [ -17.96582, 27.83457 ], [ -17.96528, 27.83444 ], [ -17.965, 27.83481 ], [ -17.96569, 27.83536 ], [ -17.96553, 27.83567 ], [ -17.9652, 27.83586 ], [ -17.96498, 27.83562 ], [ -17.96491, 27.83592 ], [ -17.96426, 27.83543 ], [ -17.9636, 27.83587 ], [ -17.96342, 27.83668 ], [ -17.96365, 27.83761 ], [ -17.96334, 27.83848 ], [ -17.96337, 27.83888 ], [ -17.96322, 27.83938 ], [ -17.96285, 27.83929 ], [ -17.96276, 27.839 ], [ -17.96239, 27.83906 ], [ -17.96186, 27.83925 ], [ -17.96168, 27.83904 ], [ -17.96133, 27.8391 ], [ -17.96045, 27.83901 ], [ -17.96017, 27.83905 ], [ -17.95942, 27.83962 ], [ -17.95959, 27.84002 ], [ -17.95942, 27.84017 ], [ -17.95919, 27.84058 ], [ -17.95899, 27.84092 ], [ -17.9588, 27.84103 ], [ -17.9584, 27.84116 ], [ -17.95823, 27.84136 ], [ -17.95801, 27.84161 ], [ -17.95774, 27.84173 ], [ -17.95759, 27.84156 ], [ -17.9574, 27.84124 ], [ -17.957, 27.84108 ], [ -17.95672, 27.8411 ], [ -17.95616, 27.84115 ], [ -17.95574, 27.84175 ], [ -17.95578, 27.84209 ], [ -17.95562, 27.84211 ], [ -17.95549, 27.84183 ], [ -17.95514, 27.84213 ], [ -17.95497, 27.84183 ], [ -17.95394, 27.84107 ], [ -17.95356, 27.84104 ], [ -17.95317, 27.84108 ], [ -17.95289, 27.84132 ], [ -17.95265, 27.84119 ], [ -17.95221, 27.84099 ], [ -17.95201, 27.84101 ], [ -17.95155, 27.84101 ], [ -17.95093, 27.84083 ], [ -17.95063, 27.84063 ], [ -17.94942, 27.84057 ], [ -17.94871, 27.84075 ], [ -17.94881, 27.84116 ], [ -17.94863, 27.84147 ], [ -17.94848, 27.84119 ], [ -17.94852, 27.84065 ], [ -17.94781, 27.84043 ], [ -17.94736, 27.84029 ], [ -17.94718, 27.84038 ], [ -17.94744, 27.84076 ], [ -17.94667, 27.84077 ], [ -17.94636, 27.84057 ], [ -17.94657, 27.84042 ], [ -17.94613, 27.84037 ], [ -17.9452, 27.84118 ], [ -17.94512, 27.84181 ], [ -17.94522, 27.84222 ], [ -17.94522, 27.8425 ], [ -17.94485, 27.84206 ], [ -17.94465, 27.84207 ], [ -17.9444, 27.84272 ], [ -17.94442, 27.84312 ], [ -17.94425, 27.84323 ], [ -17.94438, 27.84349 ], [ -17.94384, 27.84327 ], [ -17.94362, 27.84364 ], [ -17.94335, 27.84379 ], [ -17.94312, 27.84403 ], [ -17.94317, 27.84461 ], [ -17.94284, 27.84476 ], [ -17.94253, 27.84454 ], [ -17.94249, 27.8447 ], [ -17.9428, 27.84486 ], [ -17.94268, 27.84505 ], [ -17.94238, 27.84524 ], [ -17.94195, 27.84515 ], [ -17.94186, 27.84534 ], [ -17.94169, 27.84556 ], [ -17.94176, 27.84573 ], [ -17.94137, 27.846 ], [ -17.94097, 27.84567 ], [ -17.9403, 27.84588 ], [ -17.93978, 27.84586 ], [ -17.94006, 27.84666 ], [ -17.93957, 27.8466 ], [ -17.93949, 27.84613 ], [ -17.93859, 27.84608 ], [ -17.93813, 27.84578 ], [ -17.93795, 27.8464 ], [ -17.93771, 27.84651 ], [ -17.93759, 27.84637 ], [ -17.93738, 27.84674 ], [ -17.93771, 27.84733 ], [ -17.93736, 27.84757 ], [ -17.93721, 27.84709 ], [ -17.93689, 27.84718 ], [ -17.93667, 27.84749 ], [ -17.93668, 27.84767 ], [ -17.93716, 27.84783 ], [ -17.93722, 27.8481 ], [ -17.937, 27.84828 ], [ -17.9364, 27.84817 ], [ -17.93594, 27.84761 ], [ -17.93587, 27.84776 ], [ -17.9361, 27.84823 ], [ -17.9359, 27.84845 ], [ -17.93541, 27.84793 ], [ -17.9354, 27.84853 ], [ -17.93507, 27.84837 ], [ -17.93503, 27.8486 ], [ -17.93463, 27.84859 ], [ -17.93462, 27.84885 ], [ -17.93445, 27.84864 ], [ -17.93468, 27.84839 ], [ -17.93458, 27.8481 ], [ -17.93431, 27.84808 ], [ -17.93413, 27.84866 ], [ -17.93361, 27.84897 ], [ -17.9335, 27.84851 ], [ -17.93317, 27.84872 ], [ -17.93314, 27.84837 ], [ -17.93256, 27.84865 ], [ -17.93216, 27.84821 ], [ -17.93179, 27.84808 ], [ -17.93144, 27.84813 ], [ -17.93125, 27.84756 ], [ -17.93007, 27.84724 ], [ -17.92985, 27.84796 ], [ -17.93013, 27.84826 ], [ -17.92997, 27.8485 ], [ -17.9295, 27.84864 ], [ -17.92943, 27.84906 ], [ -17.92924, 27.84914 ], [ -17.92914, 27.84895 ], [ -17.92886, 27.84916 ], [ -17.92845, 27.84918 ], [ -17.92826, 27.84891 ], [ -17.928, 27.84923 ], [ -17.92778, 27.84891 ], [ -17.9274, 27.84902 ], [ -17.92687, 27.8487 ], [ -17.92671, 27.84926 ], [ -17.92654, 27.84899 ], [ -17.92671, 27.84849 ], [ -17.92644, 27.84824 ], [ -17.92608, 27.84953 ], [ -17.92591, 27.84948 ], [ -17.92581, 27.84914 ], [ -17.92563, 27.84932 ], [ -17.92533, 27.84928 ], [ -17.92491, 27.84927 ], [ -17.92479, 27.84905 ], [ -17.92436, 27.84914 ], [ -17.92421, 27.84894 ], [ -17.92395, 27.84901 ], [ -17.92372, 27.84922 ], [ -17.92365, 27.8489 ], [ -17.9238, 27.84866 ], [ -17.92362, 27.84832 ], [ -17.92342, 27.84841 ], [ -17.92358, 27.84936 ], [ -17.92335, 27.84915 ], [ -17.92322, 27.84871 ], [ -17.92311, 27.84866 ], [ -17.92309, 27.8489 ], [ -17.92282, 27.84895 ], [ -17.92251, 27.84832 ], [ -17.92229, 27.8485 ], [ -17.92216, 27.8484 ], [ -17.92219, 27.84798 ], [ -17.92181, 27.84743 ], [ -17.92157, 27.8472 ], [ -17.9214, 27.84733 ], [ -17.92144, 27.8479 ], [ -17.92131, 27.84789 ], [ -17.92105, 27.84738 ], [ -17.9206, 27.84798 ], [ -17.91975, 27.84751 ], [ -17.91973, 27.84778 ], [ -17.91947, 27.8479 ], [ -17.9193, 27.84777 ], [ -17.91927, 27.84723 ], [ -17.91884, 27.84729 ], [ -17.91879, 27.84762 ], [ -17.91844, 27.84797 ], [ -17.91831, 27.84794 ], [ -17.91837, 27.84781 ], [ -17.9181, 27.84782 ], [ -17.9179, 27.84765 ], [ -17.9172, 27.84825 ], [ -17.91713, 27.84784 ], [ -17.9169, 27.84778 ], [ -17.91731, 27.84716 ], [ -17.91679, 27.8475 ], [ -17.91665, 27.84744 ], [ -17.91697, 27.84666 ], [ -17.91703, 27.84641 ], [ -17.91636, 27.84689 ], [ -17.91663, 27.84616 ], [ -17.91685, 27.84603 ], [ -17.91672, 27.84587 ], [ -17.91677, 27.84543 ], [ -17.91627, 27.8456 ], [ -17.91607, 27.84586 ], [ -17.91593, 27.84579 ], [ -17.91608, 27.84555 ], [ -17.91583, 27.84554 ], [ -17.91557, 27.84584 ], [ -17.91591, 27.84521 ], [ -17.91569, 27.84444 ], [ -17.91575, 27.84404 ], [ -17.91493, 27.84376 ], [ -17.9146, 27.84406 ], [ -17.91463, 27.84343 ], [ -17.91399, 27.84332 ], [ -17.91338, 27.84343 ], [ -17.91324, 27.8441 ], [ -17.91315, 27.84428 ], [ -17.91289, 27.84468 ], [ -17.91269, 27.84459 ], [ -17.91283, 27.84435 ], [ -17.91272, 27.84409 ], [ -17.91314, 27.84381 ], [ -17.9131, 27.84342 ], [ -17.91271, 27.84326 ], [ -17.91243, 27.84357 ], [ -17.91225, 27.84355 ], [ -17.91218, 27.84303 ], [ -17.91144, 27.84258 ], [ -17.91075, 27.8427 ], [ -17.9104, 27.84335 ], [ -17.90996, 27.84376 ], [ -17.90953, 27.84349 ], [ -17.90957, 27.84326 ], [ -17.90929, 27.84285 ], [ -17.90866, 27.84252 ], [ -17.90803, 27.84246 ], [ -17.90735, 27.84308 ], [ -17.90753, 27.84339 ], [ -17.90735, 27.84351 ], [ -17.90723, 27.84342 ], [ -17.90733, 27.84325 ], [ -17.90704, 27.84322 ], [ -17.9072, 27.84289 ], [ -17.90677, 27.84186 ], [ -17.9066, 27.8418 ], [ -17.90636, 27.84201 ], [ -17.9062, 27.8419 ], [ -17.90646, 27.84129 ], [ -17.90614, 27.84096 ], [ -17.90568, 27.84083 ], [ -17.90497, 27.84089 ], [ -17.90451, 27.84134 ], [ -17.90394, 27.84146 ], [ -17.90369, 27.84175 ], [ -17.90357, 27.84232 ], [ -17.9033, 27.84229 ], [ -17.9032, 27.84193 ], [ -17.90306, 27.84215 ], [ -17.90282, 27.84213 ], [ -17.90274, 27.8424 ], [ -17.90254, 27.84207 ], [ -17.90276, 27.84186 ], [ -17.90259, 27.84152 ], [ -17.90188, 27.84203 ], [ -17.90176, 27.84167 ], [ -17.90245, 27.8411 ], [ -17.90379, 27.84061 ], [ -17.90308, 27.83874 ], [ -17.9028, 27.8386 ], [ -17.90316, 27.83775 ], [ -17.90258, 27.83772 ], [ -17.90242, 27.83745 ], [ -17.90171, 27.83723 ], [ -17.90146, 27.83722 ], [ -17.9011, 27.83698 ], [ -17.90075, 27.83689 ], [ -17.90032, 27.83712 ], [ -17.90029, 27.83682 ], [ -17.89999, 27.83696 ], [ -17.90003, 27.8366 ], [ -17.89934, 27.83615 ], [ -17.89868, 27.8369 ], [ -17.8987, 27.83658 ], [ -17.8991, 27.83593 ], [ -17.89889, 27.83525 ], [ -17.89891, 27.83488 ], [ -17.89906, 27.83482 ], [ -17.89866, 27.83432 ], [ -17.89891, 27.83381 ], [ -17.89868, 27.83367 ], [ -17.89875, 27.83348 ], [ -17.89847, 27.83332 ], [ -17.89827, 27.83354 ], [ -17.89785, 27.83358 ], [ -17.89765, 27.83291 ], [ -17.89692, 27.83243 ], [ -17.89617, 27.83238 ], [ -17.8959, 27.83271 ], [ -17.8957, 27.83252 ], [ -17.89512, 27.83274 ], [ -17.89514, 27.83235 ], [ -17.89386, 27.83229 ], [ -17.89413, 27.8319 ], [ -17.89467, 27.83169 ], [ -17.89472, 27.83153 ], [ -17.89455, 27.83119 ], [ -17.89432, 27.83116 ], [ -17.89437, 27.83078 ], [ -17.89414, 27.8306 ], [ -17.89419, 27.83035 ], [ -17.89401, 27.83006 ], [ -17.89357, 27.83022 ], [ -17.8939, 27.82967 ], [ -17.89354, 27.82952 ], [ -17.89368, 27.8289 ], [ -17.89353, 27.82837 ], [ -17.89343, 27.82807 ], [ -17.89377, 27.82782 ], [ -17.89378, 27.82735 ], [ -17.89313, 27.82669 ], [ -17.893, 27.82635 ], [ -17.8926, 27.82618 ], [ -17.89248, 27.82594 ], [ -17.89306, 27.82579 ], [ -17.89343, 27.82544 ], [ -17.8934, 27.82531 ], [ -17.89376, 27.82525 ], [ -17.8938, 27.8249 ], [ -17.89362, 27.82476 ], [ -17.89381, 27.82443 ], [ -17.89471, 27.82425 ], [ -17.8951, 27.82437 ], [ -17.89582, 27.82414 ], [ -17.89534, 27.82366 ], [ -17.89399, 27.82392 ], [ -17.89392, 27.82359 ], [ -17.89382, 27.82335 ], [ -17.8937, 27.82318 ], [ -17.89345, 27.82275 ], [ -17.89343, 27.82224 ], [ -17.89315, 27.82228 ], [ -17.89268, 27.82274 ], [ -17.89242, 27.82274 ], [ -17.89253, 27.82213 ], [ -17.89238, 27.82189 ], [ -17.89162, 27.82181 ], [ -17.8914, 27.82156 ], [ -17.89093, 27.82096 ], [ -17.89038, 27.82097 ], [ -17.89046, 27.82069 ], [ -17.89024, 27.82055 ], [ -17.89047, 27.82017 ], [ -17.88961, 27.82059 ], [ -17.88917, 27.81994 ], [ -17.88886, 27.82 ], [ -17.88893, 27.81962 ], [ -17.88873, 27.81956 ], [ -17.88874, 27.81935 ], [ -17.88851, 27.81879 ], [ -17.88802, 27.81864 ], [ -17.8882, 27.81854 ], [ -17.88767, 27.81867 ], [ -17.88759, 27.81824 ], [ -17.8874, 27.81834 ], [ -17.88735, 27.81814 ], [ -17.88716, 27.81818 ], [ -17.88711, 27.81845 ], [ -17.88684, 27.81837 ], [ -17.88716, 27.81782 ], [ -17.88677, 27.81762 ], [ -17.88671, 27.81753 ], [ -17.88633, 27.8178 ], [ -17.88616, 27.81737 ], [ -17.88632, 27.81722 ], [ -17.88622, 27.817 ], [ -17.88583, 27.81665 ], [ -17.88562, 27.8164 ], [ -17.88542, 27.81607 ], [ -17.88561, 27.81592 ], [ -17.88556, 27.81558 ], [ -17.88518, 27.81522 ], [ -17.88489, 27.81506 ], [ -17.88491, 27.815 ], [ -17.88471, 27.81483 ], [ -17.8847, 27.81473 ], [ -17.88454, 27.81455 ], [ -17.88439, 27.81431 ], [ -17.88425, 27.81409 ], [ -17.88409, 27.81362 ], [ -17.88406, 27.8134 ], [ -17.88394, 27.81339 ], [ -17.88393, 27.81314 ], [ -17.88375, 27.81327 ], [ -17.88356, 27.81316 ], [ -17.88373, 27.81255 ], [ -17.88373, 27.81223 ], [ -17.88347, 27.81222 ], [ -17.88343, 27.81208 ], [ -17.88367, 27.8118 ], [ -17.88352, 27.81178 ], [ -17.88348, 27.81156 ], [ -17.88317, 27.81154 ], [ -17.88343, 27.81137 ], [ -17.88354, 27.81106 ], [ -17.88321, 27.81086 ], [ -17.88333, 27.81062 ], [ -17.88338, 27.80993 ], [ -17.88345, 27.80893 ], [ -17.88331, 27.80868 ], [ -17.88366, 27.80861 ], [ -17.88429, 27.80782 ], [ -17.88284, 27.80726 ], [ -17.88334, 27.80712 ], [ -17.88324, 27.80699 ], [ -17.88354, 27.80683 ], [ -17.88329, 27.80672 ], [ -17.88366, 27.80624 ], [ -17.88335, 27.80613 ], [ -17.8832, 27.80575 ], [ -17.8834, 27.80566 ], [ -17.88345, 27.80546 ], [ -17.88339, 27.80488 ], [ -17.88336, 27.80365 ], [ -17.88361, 27.80285 ], [ -17.88382, 27.80277 ], [ -17.884, 27.80219 ], [ -17.88427, 27.8018 ], [ -17.88439, 27.80183 ], [ -17.88448, 27.80164 ], [ -17.88459, 27.80144 ], [ -17.88453, 27.80131 ], [ -17.88469, 27.80117 ], [ -17.88504, 27.80109 ], [ -17.88515, 27.80083 ], [ -17.88515, 27.80057 ], [ -17.88561, 27.80038 ], [ -17.88575, 27.80037 ], [ -17.88618, 27.80046 ], [ -17.88637, 27.80034 ], [ -17.88665, 27.80052 ], [ -17.88704, 27.80032 ], [ -17.88703, 27.80048 ], [ -17.8873, 27.80054 ], [ -17.88772, 27.80023 ], [ -17.8882, 27.8003 ], [ -17.8882, 27.80005 ], [ -17.88874, 27.80002 ], [ -17.88883, 27.79954 ], [ -17.88917, 27.79914 ], [ -17.88903, 27.79888 ], [ -17.88924, 27.79867 ], [ -17.88969, 27.79861 ], [ -17.88958, 27.79834 ], [ -17.89004, 27.79778 ], [ -17.88989, 27.79755 ], [ -17.89015, 27.79732 ], [ -17.88997, 27.79724 ], [ -17.88996, 27.79706 ], [ -17.8904, 27.79663 ], [ -17.89061, 27.79608 ], [ -17.89093, 27.79591 ], [ -17.89075, 27.79574 ], [ -17.89104, 27.79531 ], [ -17.89098, 27.79508 ], [ -17.89142, 27.79452 ], [ -17.8921, 27.79438 ], [ -17.89184, 27.79398 ], [ -17.89194, 27.79373 ], [ -17.89161, 27.79325 ], [ -17.8926, 27.79249 ], [ -17.89302, 27.79187 ], [ -17.89325, 27.79184 ], [ -17.89326, 27.792 ], [ -17.89364, 27.79219 ], [ -17.89416, 27.79198 ], [ -17.89449, 27.79081 ], [ -17.89504, 27.79074 ], [ -17.89501, 27.79049 ], [ -17.8953, 27.79023 ], [ -17.8949, 27.78998 ], [ -17.89554, 27.78978 ], [ -17.89574, 27.78943 ], [ -17.89534, 27.78916 ], [ -17.89563, 27.78912 ], [ -17.89591, 27.78929 ], [ -17.8961, 27.78863 ], [ -17.89625, 27.78851 ], [ -17.89638, 27.78877 ], [ -17.89674, 27.78824 ], [ -17.89551, 27.78825 ], [ -17.89532, 27.78795 ], [ -17.89573, 27.78777 ], [ -17.89577, 27.78749 ], [ -17.89633, 27.78745 ], [ -17.89669, 27.78694 ], [ -17.89719, 27.78679 ], [ -17.89737, 27.78696 ], [ -17.89759, 27.78674 ], [ -17.89786, 27.78673 ], [ -17.89762, 27.78582 ], [ -17.89813, 27.7861 ], [ -17.89898, 27.78726 ], [ -17.8995, 27.78741 ], [ -17.89982, 27.78705 ], [ -17.89982, 27.78687 ], [ -17.89954, 27.7867 ], [ -17.89954, 27.78623 ], [ -17.89982, 27.78616 ], [ -17.89975, 27.78581 ], [ -17.90032, 27.78516 ], [ -17.90106, 27.78052 ], [ -17.90136, 27.78057 ], [ -17.90096, 27.78257 ], [ -17.90126, 27.78261 ], [ -17.90099, 27.78395 ], [ -17.90164, 27.78405 ], [ -17.90162, 27.78415 ], [ -17.90128, 27.7841 ], [ -17.90095, 27.7858 ], [ -17.90175, 27.78595 ], [ -17.90182, 27.78568 ], [ -17.90219, 27.78574 ], [ -17.90237, 27.78545 ], [ -17.90267, 27.78539 ], [ -17.90276, 27.78493 ], [ -17.90278, 27.78482 ], [ -17.90154, 27.78456 ], [ -17.90155, 27.78446 ], [ -17.90295, 27.7845 ], [ -17.90343, 27.78458 ], [ -17.90357, 27.78474 ], [ -17.90427, 27.78373 ], [ -17.90499, 27.78185 ], [ -17.90463, 27.78058 ], [ -17.90487, 27.78027 ], [ -17.905, 27.77997 ], [ -17.90508, 27.77976 ], [ -17.90483, 27.77962 ], [ -17.90517, 27.77924 ], [ -17.90522, 27.77886 ], [ -17.90556, 27.77906 ], [ -17.90588, 27.77896 ], [ -17.9062, 27.77882 ], [ -17.90707, 27.77778 ], [ -17.90753, 27.77705 ], [ -17.90794, 27.77563 ], [ -17.90821, 27.77569 ], [ -17.90843, 27.77533 ], [ -17.90836, 27.77501 ], [ -17.90848, 27.77479 ], [ -17.90836, 27.77451 ], [ -17.9088, 27.77405 ], [ -17.90894, 27.77364 ], [ -17.90972, 27.77319 ], [ -17.90975, 27.77294 ], [ -17.91051, 27.77248 ], [ -17.91145, 27.77149 ], [ -17.9126, 27.77116 ], [ -17.91305, 27.77078 ], [ -17.91416, 27.77068 ], [ -17.91429, 27.77055 ], [ -17.91438, 27.76977 ], [ -17.91386, 27.76917 ], [ -17.91381, 27.76889 ], [ -17.91356, 27.76868 ], [ -17.91303, 27.76845 ], [ -17.91253, 27.76815 ], [ -17.91217, 27.76819 ], [ -17.9118, 27.76792 ], [ -17.91151, 27.76771 ], [ -17.91125, 27.76739 ], [ -17.91122, 27.76755 ], [ -17.91104, 27.76755 ], [ -17.91094, 27.76738 ], [ -17.91049, 27.76726 ], [ -17.91038, 27.76706 ], [ -17.91081, 27.76691 ], [ -17.91052, 27.76661 ], [ -17.91057, 27.76646 ], [ -17.91034, 27.76642 ], [ -17.91064, 27.76614 ], [ -17.91023, 27.76595 ], [ -17.91051, 27.76588 ], [ -17.91056, 27.76571 ], [ -17.91045, 27.76557 ], [ -17.91024, 27.76561 ], [ -17.90999, 27.76581 ], [ -17.90956, 27.76547 ], [ -17.90955, 27.76529 ], [ -17.91023, 27.76517 ], [ -17.90983, 27.76469 ], [ -17.90998, 27.76447 ], [ -17.91009, 27.76455 ], [ -17.91019, 27.76429 ], [ -17.91043, 27.7644 ], [ -17.91052, 27.7647 ], [ -17.91093, 27.76473 ], [ -17.91088, 27.76407 ], [ -17.91134, 27.76404 ], [ -17.91145, 27.76421 ], [ -17.91173, 27.76394 ], [ -17.91196, 27.76402 ], [ -17.91204, 27.76378 ], [ -17.91231, 27.76345 ], [ -17.91256, 27.76349 ], [ -17.91244, 27.76315 ], [ -17.91253, 27.76294 ], [ -17.91296, 27.76276 ], [ -17.91266, 27.76242 ], [ -17.91272, 27.76216 ], [ -17.9133, 27.76208 ], [ -17.91333, 27.76194 ], [ -17.91371, 27.76213 ], [ -17.91358, 27.76172 ], [ -17.91387, 27.7617 ], [ -17.91386, 27.76165 ], [ -17.91391, 27.7615 ], [ -17.91373, 27.76137 ], [ -17.91397, 27.76117 ], [ -17.91407, 27.7611 ], [ -17.91441, 27.76093 ], [ -17.91429, 27.76065 ], [ -17.91468, 27.76069 ], [ -17.9146, 27.76054 ], [ -17.9149, 27.76034 ], [ -17.91487, 27.76019 ], [ -17.91494, 27.76002 ], [ -17.91481, 27.75993 ], [ -17.91487, 27.75959 ], [ -17.91589, 27.75883 ], [ -17.91589, 27.75842 ], [ -17.91617, 27.75823 ], [ -17.9161, 27.75805 ], [ -17.91679, 27.75761 ], [ -17.91698, 27.75722 ], [ -17.91675, 27.75716 ], [ -17.91674, 27.7569 ], [ -17.91705, 27.75694 ], [ -17.91691, 27.75673 ], [ -17.91738, 27.75637 ], [ -17.91758, 27.7564 ], [ -17.91768, 27.75567 ], [ -17.9185, 27.75541 ], [ -17.91907, 27.75449 ], [ -17.91973, 27.75228 ], [ -17.91982, 27.75196 ], [ -17.91988, 27.7516 ], [ -17.92003, 27.75159 ], [ -17.92017, 27.75156 ], [ -17.92014, 27.7514 ], [ -17.92043, 27.7513 ], [ -17.92055, 27.75123 ], [ -17.92092, 27.75082 ], [ -17.92102, 27.75071 ], [ -17.92161, 27.74974 ], [ -17.92142, 27.74959 ], [ -17.92182, 27.74952 ], [ -17.92174, 27.74923 ], [ -17.92255, 27.74907 ], [ -17.92277, 27.74873 ], [ -17.92245, 27.74813 ], [ -17.92286, 27.74809 ], [ -17.92301, 27.74809 ], [ -17.9231, 27.74785 ], [ -17.92314, 27.7477 ], [ -17.92353, 27.74754 ], [ -17.92349, 27.74732 ], [ -17.92399, 27.74693 ], [ -17.92407, 27.74666 ], [ -17.9237, 27.74637 ], [ -17.92387, 27.74607 ], [ -17.92385, 27.74544 ], [ -17.92399, 27.74539 ], [ -17.92382, 27.74519 ], [ -17.92402, 27.74503 ], [ -17.92434, 27.74517 ], [ -17.92431, 27.74503 ], [ -17.92445, 27.74504 ], [ -17.92449, 27.74482 ], [ -17.92411, 27.74457 ], [ -17.92457, 27.74432 ], [ -17.92501, 27.74378 ], [ -17.92498, 27.7435 ], [ -17.92515, 27.74345 ], [ -17.92536, 27.74265 ], [ -17.92512, 27.74253 ], [ -17.92569, 27.74218 ], [ -17.92573, 27.74161 ], [ -17.92546, 27.74156 ], [ -17.92576, 27.7414 ], [ -17.92579, 27.7412 ], [ -17.92568, 27.74095 ], [ -17.92561, 27.74074 ], [ -17.92534, 27.74059 ], [ -17.92531, 27.74039 ], [ -17.92575, 27.73984 ], [ -17.92551, 27.73967 ], [ -17.92578, 27.73944 ], [ -17.92593, 27.73886 ], [ -17.92632, 27.73859 ], [ -17.92636, 27.73836 ], [ -17.9261, 27.73811 ], [ -17.9265, 27.73796 ], [ -17.92673, 27.73743 ], [ -17.92663, 27.7369 ], [ -17.92582, 27.73693 ], [ -17.92663, 27.7365 ], [ -17.92646, 27.73647 ], [ -17.92683, 27.73624 ], [ -17.92666, 27.73585 ], [ -17.92603, 27.73547 ], [ -17.92548, 27.73537 ], [ -17.92521, 27.73548 ], [ -17.92498, 27.7352 ], [ -17.92532, 27.735 ], [ -17.92627, 27.73502 ], [ -17.92646, 27.73464 ], [ -17.92665, 27.73465 ], [ -17.92668, 27.73449 ], [ -17.92667, 27.73445 ], [ -17.92684, 27.73423 ], [ -17.92691, 27.73388 ], [ -17.92689, 27.73367 ], [ -17.92681, 27.73342 ], [ -17.92704, 27.73272 ], [ -17.92685, 27.73237 ], [ -17.92748, 27.73218 ], [ -17.92719, 27.73181 ], [ -17.92784, 27.73167 ], [ -17.92795, 27.73183 ], [ -17.92831, 27.73181 ], [ -17.92821, 27.73143 ], [ -17.92878, 27.73105 ], [ -17.92878, 27.73054 ], [ -17.92912, 27.73053 ], [ -17.92919, 27.73026 ], [ -17.92957, 27.73018 ], [ -17.92962, 27.7299 ], [ -17.92981, 27.72995 ], [ -17.92993, 27.72972 ], [ -17.93064, 27.72943 ], [ -17.93089, 27.7292 ], [ -17.93111, 27.72894 ], [ -17.93138, 27.72905 ], [ -17.93169, 27.72889 ], [ -17.93167, 27.72851 ], [ -17.93396, 27.7284 ], [ -17.93592, 27.72861 ], [ -17.93602, 27.72824 ], [ -17.93704, 27.72792 ], [ -17.93719, 27.72766 ], [ -17.93748, 27.7282 ], [ -17.9377, 27.7281 ], [ -17.9385, 27.7286 ], [ -17.93945, 27.72859 ], [ -17.93975, 27.72828 ], [ -17.94008, 27.72832 ], [ -17.93991, 27.72848 ], [ -17.94025, 27.7286 ], [ -17.93998, 27.72885 ], [ -17.9404, 27.72945 ], [ -17.94148, 27.73001 ], [ -17.94167, 27.73023 ], [ -17.94256, 27.73052 ], [ -17.94415, 27.73016 ], [ -17.94585, 27.729 ], [ -17.94888, 27.7287 ], [ -17.94956, 27.72819 ], [ -17.95084, 27.72648 ], [ -17.95236, 27.7255 ], [ -17.95311, 27.72418 ], [ -17.95416, 27.72281 ], [ -17.95721, 27.71972 ], [ -17.95791, 27.71786 ], [ -17.95826, 27.71485 ], [ -17.95818, 27.71187 ], [ -17.95737, 27.71025 ], [ -17.95737, 27.70976 ], [ -17.95753, 27.70892 ], [ -17.95886, 27.70681 ], [ -17.95924, 27.70566 ], [ -17.95954, 27.70373 ], [ -17.95934, 27.70249 ], [ -17.95957, 27.70038 ], [ -17.95914, 27.70004 ], [ -17.95933, 27.69948 ], [ -17.9595, 27.69941 ], [ -17.95941, 27.69905 ], [ -17.95956, 27.69807 ], [ -17.95915, 27.6977 ], [ -17.95864, 27.69803 ], [ -17.95891, 27.69756 ], [ -17.95865, 27.6971 ], [ -17.9584, 27.69705 ], [ -17.95851, 27.69652 ], [ -17.95869, 27.69639 ], [ -17.95823, 27.6955 ], [ -17.95845, 27.69515 ], [ -17.95921, 27.69505 ], [ -17.95945, 27.69479 ], [ -17.95945, 27.6946 ], [ -17.95916, 27.69437 ], [ -17.95952, 27.694 ], [ -17.95956, 27.69365 ], [ -17.95939, 27.69323 ], [ -17.95905, 27.693 ], [ -17.95876, 27.69254 ], [ -17.95897, 27.69235 ], [ -17.95963, 27.69225 ], [ -17.96, 27.69192 ], [ -17.96029, 27.69199 ], [ -17.96041, 27.69253 ], [ -17.96079, 27.69245 ] ] ] ] } }
]
}
