{
"type": "FeatureCollection",
"name": "lapalma",
"crs": { "type": "name", "properties": { "name": "urn:ogc:def:crs:OGC:1.3:CRS84" } },
"features": [
{ "type": "Feature", "properties": { "geocode": "ES707", "etiqueta": "La Palma", "notas": "Cabildo de La Palma", "granularidad": "ISLAS", "gcd_provincia": "ES702", "superficie": 70610.2, "perimetro": 181891.0, "utm_x": 220710.17, "utm_y": 3173129.57, "longitud": -17.857377, "latitud": 28.655223, "utm_x_capi": 229746.0, "utm_y_capi": 3175822.0, "long_capi": -17.765661, "lati_capi": 28.681415 }, "geometry": { "type": "MultiPolygon", "coordinates": [ [ [ [ -17.79646, 28.51851 ], [ -17.79673, 28.51829 ], [ -17.79719, 28.51834 ], [ -17.7974, 28.51843 ], [ -17.79805, 28.51852 ], [ -17.79823, 28.51876 ], [ -17.79883, 28.51871 ], [ -17.79916, 28.51822 ], [ -17.80028, 28.51813 ], [ -17.80052, 28.51795 ], [ -17.80097, 28.51647 ], [ -17.80087, 28.51593 ], [ -17.80038, 28.5157 ], [ -17.80042, 28.51553 ], [ -17.80072, 28.51553 ], [ -17.80088, 28.51535 ], [ -17.80066, 28.51507 ], [ -17.80098, 28.51478 ], [ -17.80078, 28.5147 ], [ -17.80078, 28.51452 ], [ -17.80095, 28.51452 ], [ -17.80086, 28.5143 ], [ -17.80151, 28.5145 ], [ -17.80215, 28.51385 ], [ -17.80218, 28.51363 ], [ -17.80246, 28.51365 ], [ -17.80346, 28.51297 ], [ -17.80393, 28.51213 ], [ -17.80385, 28.51194 ], [ -17.8039, 28.51168 ], [ -17.8042, 28.51167 ], [ -17.80417, 28.51143 ], [ -17.80454, 28.51112 ], [ -17.80401, 28.51079 ], [ -17.80442, 28.51056 ], [ -17.80447, 28.51027 ], [ -17.80426, 28.50999 ], [ -17.80448, 28.50998 ], [ -17.80448, 28.50977 ], [ -17.80479, 28.51001 ], [ -17.80515, 28.50984 ], [ -17.80569, 28.50895 ], [ -17.80625, 28.50854 ], [ -17.80638, 28.50808 ], [ -17.80609, 28.50794 ], [ -17.80628, 28.50787 ], [ -17.80618, 28.50752 ], [ -17.80633, 28.5074 ], [ -17.8061, 28.5072 ], [ -17.80631, 28.50694 ], [ -17.80584, 28.50681 ], [ -17.80635, 28.50661 ], [ -17.80633, 28.50644 ], [ -17.80606, 28.50631 ], [ -17.80649, 28.50592 ], [ -17.80635, 28.5058 ], [ -17.80671, 28.50564 ], [ -17.80695, 28.50518 ], [ -17.80725, 28.50484 ], [ -17.80751, 28.5042 ], [ -17.80765, 28.504 ], [ -17.80776, 28.50391 ], [ -17.8077, 28.50369 ], [ -17.80789, 28.50358 ], [ -17.80813, 28.50285 ], [ -17.80855, 28.50251 ], [ -17.80867, 28.50218 ], [ -17.80838, 28.50194 ], [ -17.80897, 28.50197 ], [ -17.80899, 28.50171 ], [ -17.8094, 28.50154 ], [ -17.80931, 28.50136 ], [ -17.80976, 28.50124 ], [ -17.81034, 28.50067 ], [ -17.81046, 28.50065 ], [ -17.81047, 28.50051 ], [ -17.81075, 28.5005 ], [ -17.81157, 28.49995 ], [ -17.81234, 28.49989 ], [ -17.81299, 28.49929 ], [ -17.8128, 28.49913 ], [ -17.81333, 28.49896 ], [ -17.81344, 28.49899 ], [ -17.81372, 28.49899 ], [ -17.81423, 28.49867 ], [ -17.81475, 28.49744 ], [ -17.81461, 28.49722 ], [ -17.81464, 28.49709 ], [ -17.81491, 28.49672 ], [ -17.815, 28.49647 ], [ -17.81477, 28.49644 ], [ -17.81479, 28.49632 ], [ -17.81522, 28.49643 ], [ -17.81598, 28.49593 ], [ -17.81718, 28.49459 ], [ -17.81758, 28.4935 ], [ -17.81772, 28.49259 ], [ -17.8179, 28.49254 ], [ -17.81845, 28.4915 ], [ -17.81818, 28.49 ], [ -17.81788, 28.48991 ], [ -17.81826, 28.48979 ], [ -17.81888, 28.48995 ], [ -17.81913, 28.48982 ], [ -17.81964, 28.48916 ], [ -17.82058, 28.48837 ], [ -17.8214, 28.48673 ], [ -17.82156, 28.48619 ], [ -17.82149, 28.4856 ], [ -17.82048, 28.48567 ], [ -17.82025, 28.48533 ], [ -17.82018, 28.48522 ], [ -17.82087, 28.48509 ], [ -17.82138, 28.48522 ], [ -17.82187, 28.48503 ], [ -17.82162, 28.485 ], [ -17.82169, 28.48478 ], [ -17.82096, 28.48482 ], [ -17.8211, 28.48457 ], [ -17.82138, 28.48453 ], [ -17.82124, 28.48428 ], [ -17.82139, 28.48383 ], [ -17.82161, 28.48366 ], [ -17.82128, 28.48334 ], [ -17.82254, 28.483 ], [ -17.82242, 28.48287 ], [ -17.82199, 28.48304 ], [ -17.82167, 28.48274 ], [ -17.82201, 28.48262 ], [ -17.82243, 28.48271 ], [ -17.82276, 28.48233 ], [ -17.82273, 28.48199 ], [ -17.82252, 28.48193 ], [ -17.82274, 28.48161 ], [ -17.82242, 28.4814 ], [ -17.82272, 28.48138 ], [ -17.82281, 28.48087 ], [ -17.82286, 28.48078 ], [ -17.82294, 28.48061 ], [ -17.82245, 28.48053 ], [ -17.82275, 28.48032 ], [ -17.82279, 28.48006 ], [ -17.82324, 28.48003 ], [ -17.82326, 28.47996 ], [ -17.82325, 28.47978 ], [ -17.82291, 28.47984 ], [ -17.82282, 28.47964 ], [ -17.82357, 28.47952 ], [ -17.82299, 28.47933 ], [ -17.82322, 28.47908 ], [ -17.82382, 28.47894 ], [ -17.82351, 28.47861 ], [ -17.8242, 28.4784 ], [ -17.82415, 28.47824 ], [ -17.82372, 28.47823 ], [ -17.82375, 28.4781 ], [ -17.82446, 28.4779 ], [ -17.82437, 28.47751 ], [ -17.82409, 28.4773 ], [ -17.8242, 28.47694 ], [ -17.82388, 28.47706 ], [ -17.82397, 28.47693 ], [ -17.82372, 28.47671 ], [ -17.82409, 28.47679 ], [ -17.82439, 28.47621 ], [ -17.82477, 28.47613 ], [ -17.82448, 28.47598 ], [ -17.82503, 28.47536 ], [ -17.82473, 28.47526 ], [ -17.82531, 28.47525 ], [ -17.82512, 28.475 ], [ -17.82483, 28.47503 ], [ -17.82477, 28.47478 ], [ -17.82521, 28.47467 ], [ -17.82497, 28.47452 ], [ -17.82537, 28.47451 ], [ -17.82524, 28.4744 ], [ -17.82557, 28.47401 ], [ -17.82498, 28.47382 ], [ -17.82544, 28.47377 ], [ -17.82557, 28.4736 ], [ -17.82467, 28.47337 ], [ -17.82541, 28.47332 ], [ -17.82566, 28.47333 ], [ -17.82579, 28.47324 ], [ -17.82602, 28.47302 ], [ -17.82615, 28.47291 ], [ -17.82644, 28.4727 ], [ -17.82633, 28.47241 ], [ -17.82603, 28.47236 ], [ -17.8264, 28.47209 ], [ -17.82628, 28.47161 ], [ -17.82644, 28.47132 ], [ -17.82677, 28.47129 ], [ -17.82816, 28.47058 ], [ -17.82775, 28.46966 ], [ -17.82741, 28.46944 ], [ -17.82768, 28.46938 ], [ -17.82778, 28.46906 ], [ -17.82824, 28.46927 ], [ -17.82937, 28.46883 ], [ -17.82925, 28.46858 ], [ -17.8291, 28.46849 ], [ -17.82896, 28.46832 ], [ -17.82937, 28.46801 ], [ -17.82995, 28.46787 ], [ -17.83006, 28.46763 ], [ -17.82992, 28.46742 ], [ -17.83044, 28.46739 ], [ -17.83099, 28.46682 ], [ -17.83085, 28.46631 ], [ -17.83103, 28.46613 ], [ -17.83049, 28.46568 ], [ -17.83076, 28.4656 ], [ -17.83136, 28.46578 ], [ -17.83164, 28.46564 ], [ -17.83135, 28.46548 ], [ -17.83144, 28.46539 ], [ -17.831, 28.46529 ], [ -17.83122, 28.465 ], [ -17.83142, 28.46504 ], [ -17.83166, 28.46493 ], [ -17.83122, 28.46453 ], [ -17.83154, 28.46441 ], [ -17.83152, 28.46426 ], [ -17.83182, 28.46401 ], [ -17.83182, 28.4637 ], [ -17.83218, 28.46334 ], [ -17.83187, 28.46302 ], [ -17.83222, 28.46289 ], [ -17.83231, 28.46268 ], [ -17.83201, 28.46248 ], [ -17.83217, 28.46232 ], [ -17.83213, 28.46211 ], [ -17.83182, 28.4619 ], [ -17.832, 28.46179 ], [ -17.83232, 28.46188 ], [ -17.83247, 28.46153 ], [ -17.83195, 28.46088 ], [ -17.83238, 28.45945 ], [ -17.83279, 28.45953 ], [ -17.83281, 28.45932 ], [ -17.83237, 28.45912 ], [ -17.83268, 28.45904 ], [ -17.83251, 28.4588 ], [ -17.83282, 28.4587 ], [ -17.83254, 28.45842 ], [ -17.8327, 28.45839 ], [ -17.83251, 28.45782 ], [ -17.83303, 28.45772 ], [ -17.83284, 28.45729 ], [ -17.83317, 28.45728 ], [ -17.83302, 28.45704 ], [ -17.83339, 28.45722 ], [ -17.8333, 28.45674 ], [ -17.83358, 28.45692 ], [ -17.83372, 28.45671 ], [ -17.83388, 28.45696 ], [ -17.83388, 28.45644 ], [ -17.83466, 28.45666 ], [ -17.83474, 28.45656 ], [ -17.83442, 28.45629 ], [ -17.83468, 28.45619 ], [ -17.83523, 28.45674 ], [ -17.83535, 28.45634 ], [ -17.83564, 28.45641 ], [ -17.83598, 28.45616 ], [ -17.83617, 28.45528 ], [ -17.83669, 28.45513 ], [ -17.8366, 28.4548 ], [ -17.83711, 28.45488 ], [ -17.83732, 28.45455 ], [ -17.83762, 28.45474 ], [ -17.83817, 28.45428 ], [ -17.8384, 28.45382 ], [ -17.83921, 28.45408 ], [ -17.83954, 28.45375 ], [ -17.83935, 28.45346 ], [ -17.8397, 28.45355 ], [ -17.84016, 28.45286 ], [ -17.84039, 28.45309 ], [ -17.84055, 28.4528 ], [ -17.84061, 28.45298 ], [ -17.84092, 28.45279 ], [ -17.84111, 28.45298 ], [ -17.84145, 28.45288 ], [ -17.84151, 28.4527 ], [ -17.84173, 28.45298 ], [ -17.84208, 28.45287 ], [ -17.84225, 28.45263 ], [ -17.84239, 28.45313 ], [ -17.84261, 28.4531 ], [ -17.8424, 28.45334 ], [ -17.84259, 28.45336 ], [ -17.84255, 28.45364 ], [ -17.84275, 28.45386 ], [ -17.84264, 28.45414 ], [ -17.84287, 28.45434 ], [ -17.84261, 28.45461 ], [ -17.84312, 28.45489 ], [ -17.84308, 28.45501 ], [ -17.84334, 28.45498 ], [ -17.84371, 28.455 ], [ -17.84396, 28.45471 ], [ -17.84451, 28.45502 ], [ -17.84416, 28.45525 ], [ -17.84393, 28.45518 ], [ -17.84389, 28.45547 ], [ -17.8443, 28.45584 ], [ -17.84513, 28.45606 ], [ -17.84552, 28.45587 ], [ -17.84678, 28.45674 ], [ -17.84723, 28.45678 ], [ -17.84741, 28.45655 ], [ -17.84757, 28.45671 ], [ -17.84768, 28.45657 ], [ -17.84776, 28.45678 ], [ -17.84801, 28.45677 ], [ -17.84797, 28.45694 ], [ -17.84848, 28.45641 ], [ -17.84871, 28.45636 ], [ -17.84871, 28.45689 ], [ -17.84953, 28.45753 ], [ -17.85038, 28.457 ], [ -17.85012, 28.45736 ], [ -17.8504, 28.45743 ], [ -17.8502, 28.45797 ], [ -17.85167, 28.45893 ], [ -17.85213, 28.45907 ], [ -17.85261, 28.45881 ], [ -17.85344, 28.45914 ], [ -17.85411, 28.45895 ], [ -17.85456, 28.45862 ], [ -17.85462, 28.45903 ], [ -17.85562, 28.46007 ], [ -17.85593, 28.46015 ], [ -17.85594, 28.46001 ], [ -17.85653, 28.45992 ], [ -17.85663, 28.46021 ], [ -17.85695, 28.46002 ], [ -17.8567, 28.46052 ], [ -17.85691, 28.46075 ], [ -17.85737, 28.46083 ], [ -17.85736, 28.46123 ], [ -17.85776, 28.46143 ], [ -17.85735, 28.46181 ], [ -17.85756, 28.46252 ], [ -17.85781, 28.46259 ], [ -17.85768, 28.46305 ], [ -17.85811, 28.46393 ], [ -17.85843, 28.46415 ], [ -17.85872, 28.46383 ], [ -17.85898, 28.46396 ], [ -17.85877, 28.46453 ], [ -17.85914, 28.46476 ], [ -17.85978, 28.46457 ], [ -17.86045, 28.46483 ], [ -17.86083, 28.46466 ], [ -17.86109, 28.46496 ], [ -17.86088, 28.46528 ], [ -17.86116, 28.46527 ], [ -17.86126, 28.4656 ], [ -17.86165, 28.46562 ], [ -17.86129, 28.46599 ], [ -17.86173, 28.46609 ], [ -17.86172, 28.46645 ], [ -17.86239, 28.46666 ], [ -17.86215, 28.46693 ], [ -17.86365, 28.46655 ], [ -17.86299, 28.46689 ], [ -17.86312, 28.46738 ], [ -17.86348, 28.4678 ], [ -17.8639, 28.46776 ], [ -17.86387, 28.46806 ], [ -17.86459, 28.46791 ], [ -17.86455, 28.46861 ], [ -17.86506, 28.46845 ], [ -17.86456, 28.46877 ], [ -17.86463, 28.46922 ], [ -17.86503, 28.46957 ], [ -17.86535, 28.46935 ], [ -17.86563, 28.46949 ], [ -17.8653, 28.4697 ], [ -17.86563, 28.46968 ], [ -17.86534, 28.47009 ], [ -17.86568, 28.47016 ], [ -17.86549, 28.47035 ], [ -17.86603, 28.47099 ], [ -17.86624, 28.47159 ], [ -17.86685, 28.47198 ], [ -17.86739, 28.47188 ], [ -17.86732, 28.47233 ], [ -17.8676, 28.47241 ], [ -17.86781, 28.47274 ], [ -17.86807, 28.47271 ], [ -17.86793, 28.47317 ], [ -17.86872, 28.47336 ], [ -17.86819, 28.47346 ], [ -17.86801, 28.47391 ], [ -17.86832, 28.47396 ], [ -17.86804, 28.47429 ], [ -17.86801, 28.47541 ], [ -17.86828, 28.47566 ], [ -17.86807, 28.47635 ], [ -17.8686, 28.47661 ], [ -17.86816, 28.47672 ], [ -17.86767, 28.47711 ], [ -17.86788, 28.47811 ], [ -17.86858, 28.47833 ], [ -17.86824, 28.47849 ], [ -17.86831, 28.47869 ], [ -17.86872, 28.47891 ], [ -17.86915, 28.47882 ], [ -17.86877, 28.47915 ], [ -17.86913, 28.47932 ], [ -17.86935, 28.4801 ], [ -17.87064, 28.48031 ], [ -17.86951, 28.4804 ], [ -17.86966, 28.48072 ], [ -17.87035, 28.48097 ], [ -17.87057, 28.48089 ], [ -17.87078, 28.48113 ], [ -17.87032, 28.48133 ], [ -17.87002, 28.48116 ], [ -17.86984, 28.48131 ], [ -17.86985, 28.48171 ], [ -17.86939, 28.48165 ], [ -17.86951, 28.48182 ], [ -17.86902, 28.48216 ], [ -17.86888, 28.48234 ], [ -17.86867, 28.48225 ], [ -17.86845, 28.48241 ], [ -17.86824, 28.48282 ], [ -17.86836, 28.48309 ], [ -17.86852, 28.48316 ], [ -17.86871, 28.48299 ], [ -17.86954, 28.48324 ], [ -17.8692, 28.48333 ], [ -17.86903, 28.48376 ], [ -17.86811, 28.48384 ], [ -17.86808, 28.48404 ], [ -17.86914, 28.48414 ], [ -17.86893, 28.48439 ], [ -17.86851, 28.48453 ], [ -17.86859, 28.48477 ], [ -17.86949, 28.48417 ], [ -17.86926, 28.4848 ], [ -17.86968, 28.48471 ], [ -17.86955, 28.48486 ], [ -17.87004, 28.48501 ], [ -17.87006, 28.4852 ], [ -17.87034, 28.48536 ], [ -17.8702, 28.48568 ], [ -17.87036, 28.48575 ], [ -17.87093, 28.48624 ], [ -17.87098, 28.48673 ], [ -17.87113, 28.48674 ], [ -17.87142, 28.48723 ], [ -17.87161, 28.48721 ], [ -17.87157, 28.48736 ], [ -17.87207, 28.48732 ], [ -17.87245, 28.48772 ], [ -17.87229, 28.48802 ], [ -17.87252, 28.48818 ], [ -17.87234, 28.48848 ], [ -17.87264, 28.48892 ], [ -17.8723, 28.48901 ], [ -17.87287, 28.48909 ], [ -17.87243, 28.48965 ], [ -17.87295, 28.49048 ], [ -17.87325, 28.49061 ], [ -17.87322, 28.49046 ], [ -17.8736, 28.49037 ], [ -17.87385, 28.49051 ], [ -17.87428, 28.49048 ], [ -17.87465, 28.49073 ], [ -17.87426, 28.49112 ], [ -17.87397, 28.49126 ], [ -17.87354, 28.49118 ], [ -17.87312, 28.49159 ], [ -17.87326, 28.49178 ], [ -17.87335, 28.49166 ], [ -17.87393, 28.49167 ], [ -17.87424, 28.49191 ], [ -17.87412, 28.49206 ], [ -17.8747, 28.49211 ], [ -17.87439, 28.49266 ], [ -17.87459, 28.49296 ], [ -17.87459, 28.49318 ], [ -17.87497, 28.49339 ], [ -17.8746, 28.49372 ], [ -17.8747, 28.49407 ], [ -17.8752, 28.49385 ], [ -17.87582, 28.49405 ], [ -17.87552, 28.49412 ], [ -17.87573, 28.49425 ], [ -17.87521, 28.49476 ], [ -17.87607, 28.49478 ], [ -17.87619, 28.49501 ], [ -17.87473, 28.49525 ], [ -17.87506, 28.49549 ], [ -17.87504, 28.49572 ], [ -17.8749, 28.49587 ], [ -17.87429, 28.49629 ], [ -17.87451, 28.49626 ], [ -17.87424, 28.49649 ], [ -17.87472, 28.49653 ], [ -17.8745, 28.49679 ], [ -17.87499, 28.49667 ], [ -17.87482, 28.4969 ], [ -17.87508, 28.49713 ], [ -17.87461, 28.49692 ], [ -17.87479, 28.4971 ], [ -17.87455, 28.49707 ], [ -17.87501, 28.4974 ], [ -17.87474, 28.49786 ], [ -17.87504, 28.4979 ], [ -17.875, 28.49834 ], [ -17.8753, 28.49835 ], [ -17.87508, 28.49854 ], [ -17.87526, 28.49867 ], [ -17.87537, 28.4988 ], [ -17.8756, 28.49888 ], [ -17.8756, 28.49908 ], [ -17.87577, 28.49928 ], [ -17.87592, 28.49963 ], [ -17.87633, 28.49978 ], [ -17.87598, 28.50008 ], [ -17.87652, 28.50015 ], [ -17.87606, 28.50033 ], [ -17.87609, 28.50047 ], [ -17.87663, 28.50059 ], [ -17.87663, 28.50102 ], [ -17.87686, 28.50114 ], [ -17.87609, 28.50148 ], [ -17.8764, 28.50173 ], [ -17.87622, 28.50198 ], [ -17.8764, 28.50217 ], [ -17.8764, 28.50247 ], [ -17.87699, 28.50282 ], [ -17.87699, 28.50298 ], [ -17.87612, 28.50307 ], [ -17.87579, 28.50341 ], [ -17.87612, 28.50354 ], [ -17.87605, 28.50369 ], [ -17.87582, 28.50368 ], [ -17.87582, 28.50384 ], [ -17.87639, 28.50402 ], [ -17.87617, 28.50408 ], [ -17.87623, 28.50426 ], [ -17.87686, 28.50454 ], [ -17.87646, 28.50475 ], [ -17.87629, 28.50532 ], [ -17.87676, 28.50583 ], [ -17.87667, 28.50588 ], [ -17.87683, 28.50592 ], [ -17.87614, 28.50617 ], [ -17.87617, 28.50638 ], [ -17.8767, 28.50658 ], [ -17.87599, 28.50698 ], [ -17.87673, 28.50713 ], [ -17.87745, 28.50761 ], [ -17.87745, 28.5078 ], [ -17.87719, 28.50782 ], [ -17.87649, 28.5076 ], [ -17.87593, 28.50767 ], [ -17.87581, 28.50773 ], [ -17.87596, 28.50785 ], [ -17.87584, 28.50788 ], [ -17.87626, 28.50814 ], [ -17.87594, 28.50834 ], [ -17.87543, 28.50819 ], [ -17.87587, 28.5085 ], [ -17.87582, 28.50864 ], [ -17.87601, 28.50864 ], [ -17.87561, 28.50885 ], [ -17.87512, 28.50864 ], [ -17.87476, 28.50908 ], [ -17.87475, 28.50943 ], [ -17.87498, 28.50987 ], [ -17.87523, 28.50987 ], [ -17.87554, 28.51026 ], [ -17.87538, 28.51037 ], [ -17.87504, 28.51027 ], [ -17.87512, 28.51092 ], [ -17.87532, 28.5111 ], [ -17.87514, 28.51133 ], [ -17.87447, 28.51149 ], [ -17.8746, 28.5123 ], [ -17.87479, 28.51244 ], [ -17.87578, 28.51225 ], [ -17.87616, 28.51258 ], [ -17.87628, 28.51279 ], [ -17.87611, 28.51278 ], [ -17.87611, 28.51295 ], [ -17.8759, 28.51309 ], [ -17.87559, 28.51308 ], [ -17.87546, 28.51277 ], [ -17.87512, 28.51309 ], [ -17.87578, 28.51367 ], [ -17.87591, 28.51369 ], [ -17.8759, 28.51341 ], [ -17.87616, 28.51333 ], [ -17.8769, 28.51351 ], [ -17.87627, 28.51405 ], [ -17.87603, 28.5139 ], [ -17.87622, 28.5143 ], [ -17.87504, 28.51463 ], [ -17.87528, 28.51512 ], [ -17.87515, 28.51548 ], [ -17.8753, 28.51643 ], [ -17.87586, 28.51681 ], [ -17.87635, 28.51672 ], [ -17.8764, 28.51697 ], [ -17.8762, 28.51713 ], [ -17.8761, 28.51781 ], [ -17.87561, 28.51865 ], [ -17.8752, 28.52117 ], [ -17.87567, 28.52216 ], [ -17.8763, 28.52252 ], [ -17.87656, 28.52251 ], [ -17.87678, 28.52295 ], [ -17.87841, 28.5232 ], [ -17.8784, 28.52331 ], [ -17.87804, 28.524 ], [ -17.87874, 28.52385 ], [ -17.87891, 28.52362 ], [ -17.87891, 28.5241 ], [ -17.87916, 28.52418 ], [ -17.87951, 28.52499 ], [ -17.88018, 28.52571 ], [ -17.87974, 28.52565 ], [ -17.87873, 28.52599 ], [ -17.8776, 28.52602 ], [ -17.87756, 28.5265 ], [ -17.87802, 28.52722 ], [ -17.87831, 28.52729 ], [ -17.87831, 28.52761 ], [ -17.87887, 28.5278 ], [ -17.87832, 28.52822 ], [ -17.87822, 28.52905 ], [ -17.8784, 28.52974 ], [ -17.87835, 28.53123 ], [ -17.87887, 28.53283 ], [ -17.87945, 28.53342 ], [ -17.87958, 28.53481 ], [ -17.87946, 28.53573 ], [ -17.8798, 28.53634 ], [ -17.87959, 28.53783 ], [ -17.88009, 28.54016 ], [ -17.88089, 28.54127 ], [ -17.88144, 28.54171 ], [ -17.88225, 28.54183 ], [ -17.88309, 28.54147 ], [ -17.88338, 28.54161 ], [ -17.88333, 28.54173 ], [ -17.88269, 28.54175 ], [ -17.88298, 28.54227 ], [ -17.88262, 28.54248 ], [ -17.88291, 28.54433 ], [ -17.88323, 28.54495 ], [ -17.88376, 28.54518 ], [ -17.88387, 28.54538 ], [ -17.88351, 28.5456 ], [ -17.8837, 28.54694 ], [ -17.88422, 28.54858 ], [ -17.88518, 28.54956 ], [ -17.88755, 28.55106 ], [ -17.88765, 28.5516 ], [ -17.88766, 28.55166 ], [ -17.88826, 28.55119 ], [ -17.88856, 28.55124 ], [ -17.88827, 28.55156 ], [ -17.88887, 28.55141 ], [ -17.88876, 28.55165 ], [ -17.88923, 28.55205 ], [ -17.88912, 28.55211 ], [ -17.88948, 28.5531 ], [ -17.88997, 28.55375 ], [ -17.89115, 28.5539 ], [ -17.89141, 28.55378 ], [ -17.89138, 28.55402 ], [ -17.89171, 28.55444 ], [ -17.89158, 28.55475 ], [ -17.89197, 28.55512 ], [ -17.89231, 28.55605 ], [ -17.89267, 28.55613 ], [ -17.8927, 28.55642 ], [ -17.8933, 28.5567 ], [ -17.89324, 28.55687 ], [ -17.89348, 28.55692 ], [ -17.89362, 28.5572 ], [ -17.89325, 28.55757 ], [ -17.89372, 28.55768 ], [ -17.89331, 28.55786 ], [ -17.89333, 28.55817 ], [ -17.89396, 28.55869 ], [ -17.8936, 28.55873 ], [ -17.89381, 28.5592 ], [ -17.89364, 28.55951 ], [ -17.89362, 28.55979 ], [ -17.89378, 28.56058 ], [ -17.89458, 28.56112 ], [ -17.89489, 28.56102 ], [ -17.89481, 28.56131 ], [ -17.89531, 28.56161 ], [ -17.89519, 28.56183 ], [ -17.89561, 28.56185 ], [ -17.89565, 28.56217 ], [ -17.89526, 28.56224 ], [ -17.89518, 28.56239 ], [ -17.89521, 28.56257 ], [ -17.89592, 28.56264 ], [ -17.89549, 28.56286 ], [ -17.89564, 28.56372 ], [ -17.89637, 28.5646 ], [ -17.89743, 28.56515 ], [ -17.89796, 28.56642 ], [ -17.8986, 28.56698 ], [ -17.89809, 28.5671 ], [ -17.89804, 28.56874 ], [ -17.89815, 28.56906 ], [ -17.89885, 28.56943 ], [ -17.89892, 28.56969 ], [ -17.89862, 28.56984 ], [ -17.89896, 28.57037 ], [ -17.89877, 28.57059 ], [ -17.89906, 28.57071 ], [ -17.89879, 28.57097 ], [ -17.89905, 28.57151 ], [ -17.8997, 28.5722 ], [ -17.90027, 28.57217 ], [ -17.90008, 28.57245 ], [ -17.90023, 28.5726 ], [ -17.90093, 28.57267 ], [ -17.90122, 28.57258 ], [ -17.90142, 28.57261 ], [ -17.90171, 28.57264 ], [ -17.90207, 28.57239 ], [ -17.90214, 28.5721 ], [ -17.90234, 28.57265 ], [ -17.90241, 28.57285 ], [ -17.9031, 28.57265 ], [ -17.90317, 28.57283 ], [ -17.90347, 28.57264 ], [ -17.90334, 28.57288 ], [ -17.90354, 28.57276 ], [ -17.90363, 28.57302 ], [ -17.9047, 28.57355 ], [ -17.90477, 28.5739 ], [ -17.90508, 28.57368 ], [ -17.90509, 28.57391 ], [ -17.90561, 28.57403 ], [ -17.90568, 28.57415 ], [ -17.90534, 28.57481 ], [ -17.90585, 28.57575 ], [ -17.90688, 28.57558 ], [ -17.907, 28.57582 ], [ -17.90665, 28.57604 ], [ -17.9068, 28.57637 ], [ -17.90665, 28.57661 ], [ -17.90691, 28.5769 ], [ -17.90662, 28.57777 ], [ -17.90699, 28.57778 ], [ -17.9071, 28.57812 ], [ -17.90764, 28.57814 ], [ -17.90755, 28.5798 ], [ -17.90771, 28.57985 ], [ -17.90812, 28.58087 ], [ -17.90822, 28.58101 ], [ -17.90917, 28.58171 ], [ -17.90976, 28.58168 ], [ -17.91028, 28.58182 ], [ -17.90984, 28.58241 ], [ -17.91006, 28.58375 ], [ -17.91069, 28.58556 ], [ -17.91125, 28.58657 ], [ -17.91192, 28.58698 ], [ -17.91213, 28.58739 ], [ -17.91267, 28.58738 ], [ -17.9126, 28.58758 ], [ -17.91309, 28.58814 ], [ -17.9137, 28.58866 ], [ -17.91394, 28.58887 ], [ -17.91542, 28.59022 ], [ -17.91667, 28.59056 ], [ -17.91703, 28.59109 ], [ -17.91815, 28.59103 ], [ -17.91784, 28.59111 ], [ -17.91847, 28.59201 ], [ -17.91849, 28.59204 ], [ -17.92084, 28.59275 ], [ -17.9215, 28.59326 ], [ -17.92239, 28.59356 ], [ -17.92348, 28.59473 ], [ -17.92517, 28.59512 ], [ -17.92511, 28.59524 ], [ -17.92561, 28.59619 ], [ -17.92578, 28.59632 ], [ -17.92583, 28.59652 ], [ -17.92597, 28.59656 ], [ -17.92603, 28.59687 ], [ -17.92599, 28.59697 ], [ -17.92568, 28.59783 ], [ -17.92581, 28.59847 ], [ -17.92628, 28.59876 ], [ -17.92634, 28.59907 ], [ -17.92592, 28.59934 ], [ -17.92627, 28.59972 ], [ -17.92602, 28.59991 ], [ -17.92589, 28.59977 ], [ -17.92553, 28.59988 ], [ -17.92505, 28.5997 ], [ -17.9248, 28.59984 ], [ -17.92485, 28.60001 ], [ -17.92455, 28.60003 ], [ -17.92445, 28.60023 ], [ -17.92439, 28.6003 ], [ -17.92417, 28.60061 ], [ -17.92381, 28.60242 ], [ -17.92409, 28.60289 ], [ -17.92427, 28.60276 ], [ -17.92451, 28.60286 ], [ -17.92443, 28.60308 ], [ -17.92427, 28.60336 ], [ -17.92447, 28.60336 ], [ -17.92421, 28.60359 ], [ -17.92444, 28.60376 ], [ -17.92447, 28.60426 ], [ -17.92487, 28.60453 ], [ -17.92455, 28.60488 ], [ -17.92412, 28.60472 ], [ -17.92395, 28.60494 ], [ -17.92408, 28.6051 ], [ -17.92393, 28.60519 ], [ -17.92426, 28.60549 ], [ -17.92409, 28.60551 ], [ -17.92414, 28.60567 ], [ -17.92391, 28.6055 ], [ -17.92357, 28.60573 ], [ -17.92328, 28.60614 ], [ -17.92322, 28.6066 ], [ -17.92335, 28.60886 ], [ -17.92396, 28.6103 ], [ -17.92432, 28.61178 ], [ -17.92508, 28.61289 ], [ -17.92554, 28.61504 ], [ -17.92605, 28.61598 ], [ -17.92701, 28.61723 ], [ -17.92918, 28.62141 ], [ -17.93227, 28.62431 ], [ -17.93419, 28.62929 ], [ -17.93486, 28.63061 ], [ -17.93713, 28.63334 ], [ -17.93747, 28.63395 ], [ -17.93806, 28.63744 ], [ -17.93815, 28.63969 ], [ -17.93867, 28.6408 ], [ -17.93939, 28.64143 ], [ -17.94031, 28.64194 ], [ -17.94048, 28.64225 ], [ -17.94154, 28.64196 ], [ -17.94147, 28.6417 ], [ -17.94161, 28.64161 ], [ -17.94196, 28.64213 ], [ -17.94177, 28.64218 ], [ -17.9421, 28.64317 ], [ -17.94235, 28.64392 ], [ -17.94201, 28.64424 ], [ -17.94251, 28.64483 ], [ -17.94306, 28.64459 ], [ -17.94259, 28.64497 ], [ -17.94269, 28.64517 ], [ -17.94375, 28.6465 ], [ -17.94409, 28.64647 ], [ -17.94427, 28.64598 ], [ -17.94428, 28.64597 ], [ -17.94435, 28.64575 ], [ -17.94436, 28.64574 ], [ -17.94444, 28.64549 ], [ -17.94443, 28.64548 ], [ -17.94436, 28.64526 ], [ -17.94436, 28.64525 ], [ -17.94427, 28.64501 ], [ -17.94427, 28.645 ], [ -17.94415, 28.64472 ], [ -17.94414, 28.64471 ], [ -17.94404, 28.6444 ], [ -17.94404, 28.64439 ], [ -17.94391, 28.64402 ], [ -17.94391, 28.64401 ], [ -17.94376, 28.64358 ], [ -17.94376, 28.64357 ], [ -17.94278, 28.64381 ], [ -17.94267, 28.64351 ], [ -17.94354, 28.64331 ], [ -17.94351, 28.64257 ], [ -17.94381, 28.64252 ], [ -17.94347, 28.64109 ], [ -17.94313, 28.64116 ], [ -17.9431, 28.64102 ], [ -17.94389, 28.64089 ], [ -17.94401, 28.64145 ], [ -17.94485, 28.64121 ], [ -17.94468, 28.64027 ], [ -17.94501, 28.64019 ], [ -17.94459, 28.63893 ], [ -17.94491, 28.63885 ], [ -17.94557, 28.64093 ], [ -17.94576, 28.64254 ], [ -17.94604, 28.64274 ], [ -17.94587, 28.64304 ], [ -17.94529, 28.6432 ], [ -17.94545, 28.64682 ], [ -17.94601, 28.64921 ], [ -17.94627, 28.64966 ], [ -17.94648, 28.64956 ], [ -17.94666, 28.64967 ], [ -17.9464, 28.64985 ], [ -17.94668, 28.65067 ], [ -17.94751, 28.65144 ], [ -17.94841, 28.65175 ], [ -17.94905, 28.65153 ], [ -17.94882, 28.6506 ], [ -17.949, 28.65043 ], [ -17.94935, 28.65134 ], [ -17.94933, 28.65175 ], [ -17.94973, 28.65224 ], [ -17.9506, 28.65331 ], [ -17.9516, 28.65409 ], [ -17.95429, 28.65705 ], [ -17.95529, 28.6574 ], [ -17.95517, 28.65753 ], [ -17.95576, 28.65855 ], [ -17.95639, 28.66125 ], [ -17.95811, 28.66389 ], [ -17.95911, 28.66478 ], [ -17.96051, 28.66542 ], [ -17.96207, 28.66689 ], [ -17.96258, 28.66673 ], [ -17.96315, 28.66698 ], [ -17.9634, 28.66764 ], [ -17.96387, 28.66753 ], [ -17.96428, 28.66792 ], [ -17.96417, 28.66837 ], [ -17.9643, 28.66869 ], [ -17.9642, 28.66894 ], [ -17.96417, 28.66924 ], [ -17.96402, 28.66931 ], [ -17.96385, 28.66961 ], [ -17.96397, 28.66989 ], [ -17.96386, 28.67018 ], [ -17.96374, 28.67017 ], [ -17.96367, 28.6702 ], [ -17.9634, 28.67022 ], [ -17.96307, 28.67046 ], [ -17.9628, 28.67105 ], [ -17.96283, 28.67293 ], [ -17.96267, 28.6733 ], [ -17.96281, 28.6734 ], [ -17.96264, 28.67379 ], [ -17.96285, 28.67494 ], [ -17.96289, 28.67509 ], [ -17.9629, 28.67521 ], [ -17.96305, 28.67548 ], [ -17.96342, 28.67613 ], [ -17.9636, 28.67589 ], [ -17.96397, 28.67598 ], [ -17.96415, 28.67624 ], [ -17.96397, 28.67645 ], [ -17.96402, 28.67663 ], [ -17.96374, 28.67663 ], [ -17.96372, 28.67677 ], [ -17.96386, 28.67722 ], [ -17.9641, 28.67726 ], [ -17.96408, 28.67743 ], [ -17.96459, 28.67755 ], [ -17.96499, 28.67798 ], [ -17.96479, 28.67807 ], [ -17.96455, 28.67778 ], [ -17.96427, 28.67774 ], [ -17.9642, 28.678 ], [ -17.9644, 28.6784 ], [ -17.96468, 28.67845 ], [ -17.96492, 28.67903 ], [ -17.96526, 28.67896 ], [ -17.96566, 28.67924 ], [ -17.96586, 28.67962 ], [ -17.96654, 28.67937 ], [ -17.9666, 28.6795 ], [ -17.96614, 28.67978 ], [ -17.96673, 28.67991 ], [ -17.9666, 28.68013 ], [ -17.9674, 28.6805 ], [ -17.9675, 28.68083 ], [ -17.96716, 28.68102 ], [ -17.96771, 28.6813 ], [ -17.96677, 28.68146 ], [ -17.96566, 28.68204 ], [ -17.96529, 28.68236 ], [ -17.96511, 28.68287 ], [ -17.96543, 28.68354 ], [ -17.96571, 28.68379 ], [ -17.96586, 28.68368 ], [ -17.96622, 28.68404 ], [ -17.96608, 28.68424 ], [ -17.96617, 28.68452 ], [ -17.9659, 28.6847 ], [ -17.96588, 28.68493 ], [ -17.96621, 28.68543 ], [ -17.96608, 28.68575 ], [ -17.9662, 28.68595 ], [ -17.96627, 28.68602 ], [ -17.96637, 28.68623 ], [ -17.96657, 28.68621 ], [ -17.96652, 28.68665 ], [ -17.96715, 28.68687 ], [ -17.967, 28.68718 ], [ -17.96664, 28.6871 ], [ -17.96663, 28.68763 ], [ -17.96686, 28.68811 ], [ -17.96698, 28.68821 ], [ -17.9676, 28.68867 ], [ -17.96746, 28.68876 ], [ -17.96747, 28.68914 ], [ -17.96764, 28.69016 ], [ -17.96982, 28.69061 ], [ -17.97001, 28.69089 ], [ -17.96974, 28.69103 ], [ -17.96895, 28.69088 ], [ -17.96935, 28.69142 ], [ -17.96891, 28.69127 ], [ -17.96849, 28.69142 ], [ -17.96825, 28.69171 ], [ -17.96825, 28.69184 ], [ -17.96829, 28.69197 ], [ -17.96847, 28.69215 ], [ -17.96891, 28.69188 ], [ -17.96926, 28.69192 ], [ -17.96956, 28.69223 ], [ -17.96923, 28.69246 ], [ -17.96809, 28.69265 ], [ -17.96801, 28.69297 ], [ -17.96871, 28.69342 ], [ -17.96909, 28.69321 ], [ -17.96887, 28.69346 ], [ -17.9691, 28.69347 ], [ -17.96906, 28.69365 ], [ -17.96874, 28.69383 ], [ -17.96925, 28.69432 ], [ -17.96939, 28.69444 ], [ -17.96951, 28.69502 ], [ -17.9693, 28.69551 ], [ -17.97018, 28.69579 ], [ -17.97048, 28.69608 ], [ -17.9714, 28.69629 ], [ -17.97088, 28.69689 ], [ -17.97068, 28.69737 ], [ -17.97095, 28.69741 ], [ -17.97109, 28.69764 ], [ -17.97096, 28.69809 ], [ -17.97167, 28.69847 ], [ -17.97047, 28.69871 ], [ -17.97033, 28.69879 ], [ -17.97037, 28.69896 ], [ -17.97086, 28.69973 ], [ -17.97102, 28.70041 ], [ -17.97132, 28.7005 ], [ -17.97173, 28.7011 ], [ -17.97183, 28.70124 ], [ -17.97242, 28.70101 ], [ -17.97261, 28.70108 ], [ -17.97248, 28.70122 ], [ -17.97258, 28.70129 ], [ -17.97305, 28.70126 ], [ -17.97298, 28.70155 ], [ -17.97242, 28.7016 ], [ -17.97236, 28.70178 ], [ -17.97275, 28.70204 ], [ -17.97275, 28.70236 ], [ -17.97318, 28.7026 ], [ -17.97409, 28.7026 ], [ -17.97409, 28.70278 ], [ -17.97356, 28.70306 ], [ -17.97355, 28.70341 ], [ -17.97448, 28.70363 ], [ -17.97482, 28.7041 ], [ -17.97483, 28.70441 ], [ -17.97449, 28.70479 ], [ -17.97466, 28.70485 ], [ -17.97464, 28.70515 ], [ -17.97414, 28.7054 ], [ -17.9736, 28.70614 ], [ -17.97355, 28.70627 ], [ -17.97378, 28.70641 ], [ -17.97333, 28.70681 ], [ -17.97323, 28.70739 ], [ -17.97343, 28.70809 ], [ -17.97388, 28.70822 ], [ -17.97396, 28.70851 ], [ -17.97391, 28.70884 ], [ -17.97429, 28.70881 ], [ -17.97425, 28.70901 ], [ -17.97447, 28.70918 ], [ -17.97437, 28.70942 ], [ -17.97464, 28.70945 ], [ -17.97423, 28.70982 ], [ -17.97352, 28.71005 ], [ -17.97457, 28.71139 ], [ -17.9748, 28.71129 ], [ -17.97487, 28.71156 ], [ -17.97512, 28.71161 ], [ -17.97524, 28.71142 ], [ -17.97537, 28.71162 ], [ -17.97567, 28.71165 ], [ -17.97588, 28.71187 ], [ -17.97555, 28.7121 ], [ -17.97565, 28.71225 ], [ -17.97593, 28.71246 ], [ -17.97657, 28.71235 ], [ -17.97637, 28.71263 ], [ -17.9773, 28.71339 ], [ -17.97769, 28.71354 ], [ -17.97785, 28.71454 ], [ -17.97873, 28.7154 ], [ -17.97907, 28.71654 ], [ -17.97942, 28.71668 ], [ -17.97947, 28.71684 ], [ -17.98033, 28.71735 ], [ -17.98031, 28.71755 ], [ -17.98061, 28.71804 ], [ -17.98071, 28.71895 ], [ -17.98028, 28.71985 ], [ -17.98027, 28.72045 ], [ -17.97967, 28.72149 ], [ -17.97952, 28.72199 ], [ -17.97987, 28.72258 ], [ -17.98001, 28.72257 ], [ -17.98069, 28.72342 ], [ -17.98077, 28.72374 ], [ -17.98119, 28.72383 ], [ -17.98099, 28.7244 ], [ -17.98108, 28.72464 ], [ -17.98113, 28.72485 ], [ -17.9812, 28.72503 ], [ -17.98047, 28.72602 ], [ -17.98046, 28.72629 ], [ -17.98133, 28.72736 ], [ -17.98131, 28.72776 ], [ -17.98161, 28.72825 ], [ -17.98173, 28.72893 ], [ -17.98262, 28.72946 ], [ -17.98297, 28.72947 ], [ -17.98294, 28.72964 ], [ -17.98313, 28.72964 ], [ -17.98323, 28.7299 ], [ -17.98419, 28.72989 ], [ -17.98451, 28.7301 ], [ -17.9848, 28.73006 ], [ -17.98506, 28.73038 ], [ -17.98524, 28.73029 ], [ -17.98522, 28.73061 ], [ -17.98578, 28.73085 ], [ -17.98557, 28.73098 ], [ -17.98553, 28.73182 ], [ -17.986, 28.73263 ], [ -17.9871, 28.73292 ], [ -17.98774, 28.73299 ], [ -17.98831, 28.73313 ], [ -17.98903, 28.73295 ], [ -17.98938, 28.73316 ], [ -17.98928, 28.73348 ], [ -17.98957, 28.73448 ], [ -17.99005, 28.73522 ], [ -17.98987, 28.73575 ], [ -17.99007, 28.73627 ], [ -17.99117, 28.73737 ], [ -17.99133, 28.73741 ], [ -17.99143, 28.73715 ], [ -17.99173, 28.73723 ], [ -17.99183, 28.73771 ], [ -17.99144, 28.73794 ], [ -17.99097, 28.739 ], [ -17.99106, 28.73935 ], [ -17.99181, 28.74025 ], [ -17.99189, 28.74034 ], [ -17.99255, 28.74033 ], [ -17.99332, 28.74104 ], [ -17.99342, 28.74212 ], [ -17.99387, 28.74262 ], [ -17.99389, 28.74299 ], [ -17.99449, 28.744 ], [ -17.9948, 28.74387 ], [ -17.99551, 28.74401 ], [ -17.99562, 28.74446 ], [ -17.99579, 28.74454 ], [ -17.99567, 28.74473 ], [ -17.99595, 28.74516 ], [ -17.99629, 28.74515 ], [ -17.99769, 28.74586 ], [ -17.9981, 28.74576 ], [ -17.99825, 28.74602 ], [ -17.99851, 28.74637 ], [ -17.99899, 28.74628 ], [ -17.99961, 28.74682 ], [ -18.00045, 28.74719 ], [ -18.0007, 28.74763 ], [ -18.0006, 28.74829 ], [ -18.00038, 28.74864 ], [ -18.00062, 28.74963 ], [ -18.00093, 28.75005 ], [ -18.0013, 28.75 ], [ -18.00151, 28.75046 ], [ -18.00093, 28.75123 ], [ -18.00094, 28.75178 ], [ -18.00121, 28.75211 ], [ -18.00157, 28.75203 ], [ -18.00154, 28.75227 ], [ -18.00193, 28.75271 ], [ -18.00263, 28.75314 ], [ -18.00305, 28.75303 ], [ -18.00362, 28.75318 ], [ -18.00477, 28.75328 ], [ -18.00493, 28.75347 ], [ -18.00468, 28.75357 ], [ -18.00513, 28.75399 ], [ -18.005, 28.75396 ], [ -18.00487, 28.75435 ], [ -18.00504, 28.75531 ], [ -18.00524, 28.75561 ], [ -18.00515, 28.75586 ], [ -18.00621, 28.75671 ], [ -18.00718, 28.7578 ], [ -18.00686, 28.75847 ], [ -18.00574, 28.75914 ], [ -18.00549, 28.75934 ], [ -18.00547, 28.7596 ], [ -18.00505, 28.7597 ], [ -18.00463, 28.76024 ], [ -18.00426, 28.76041 ], [ -18.00433, 28.76145 ], [ -18.00366, 28.76281 ], [ -18.00372, 28.76404 ], [ -18.00399, 28.76533 ], [ -18.0047, 28.76636 ], [ -18.00591, 28.76678 ], [ -18.00605, 28.76701 ], [ -18.00543, 28.76711 ], [ -18.00535, 28.76735 ], [ -18.00544, 28.7676 ], [ -18.00601, 28.76846 ], [ -18.00636, 28.76986 ], [ -18.00606, 28.7717 ], [ -18.0067, 28.77505 ], [ -18.00665, 28.7759 ], [ -18.00676, 28.77609 ], [ -18.00634, 28.77609 ], [ -18.00624, 28.77628 ], [ -18.00601, 28.77836 ], [ -18.00572, 28.77947 ], [ -18.00578, 28.78021 ], [ -18.00539, 28.78103 ], [ -18.00561, 28.78118 ], [ -18.00574, 28.78155 ], [ -18.0053, 28.78163 ], [ -18.00523, 28.78204 ], [ -18.00519, 28.78252 ], [ -18.00464, 28.78312 ], [ -18.00453, 28.7834 ], [ -18.00456, 28.78371 ], [ -18.00491, 28.78417 ], [ -18.00562, 28.78423 ], [ -18.00583, 28.78458 ], [ -18.00529, 28.78453 ], [ -18.00509, 28.78482 ], [ -18.00345, 28.78533 ], [ -18.003, 28.78598 ], [ -18.00311, 28.78618 ], [ -18.00333, 28.78618 ], [ -18.00331, 28.78654 ], [ -18.00231, 28.78616 ], [ -18.00085, 28.78631 ], [ -18.00023, 28.78649 ], [ -17.99958, 28.78713 ], [ -17.99848, 28.78747 ], [ -17.99829, 28.78873 ], [ -17.99757, 28.78934 ], [ -17.99687, 28.78955 ], [ -17.99628, 28.79016 ], [ -17.99643, 28.7907 ], [ -17.99641, 28.79088 ], [ -17.99626, 28.79091 ], [ -17.99631, 28.79151 ], [ -17.99664, 28.79229 ], [ -17.99643, 28.79267 ], [ -17.99603, 28.79277 ], [ -17.99565, 28.79313 ], [ -17.99556, 28.79363 ], [ -17.99529, 28.79405 ], [ -17.99537, 28.79422 ], [ -17.99576, 28.79434 ], [ -17.99584, 28.79479 ], [ -17.99559, 28.79505 ], [ -17.99545, 28.79564 ], [ -17.99495, 28.79609 ], [ -17.99472, 28.796 ], [ -17.99462, 28.7958 ], [ -17.9942, 28.79606 ], [ -17.99391, 28.796 ], [ -17.99355, 28.79574 ], [ -17.99336, 28.79544 ], [ -17.99342, 28.79525 ], [ -17.99318, 28.79509 ], [ -17.99211, 28.7953 ], [ -17.99178, 28.79502 ], [ -17.99152, 28.79501 ], [ -17.99133, 28.79516 ], [ -17.99139, 28.7953 ], [ -17.99111, 28.79529 ], [ -17.99098, 28.79578 ], [ -17.99078, 28.79595 ], [ -17.99059, 28.79558 ], [ -17.99081, 28.79522 ], [ -17.99033, 28.79499 ], [ -17.98829, 28.79563 ], [ -17.98806, 28.79556 ], [ -17.98802, 28.79565 ], [ -17.98783, 28.79613 ], [ -17.98821, 28.79677 ], [ -17.98819, 28.79701 ], [ -17.98766, 28.79706 ], [ -17.98777, 28.79744 ], [ -17.98756, 28.79748 ], [ -17.98781, 28.79794 ], [ -17.98761, 28.7981 ], [ -17.98744, 28.79799 ], [ -17.98711, 28.79809 ], [ -17.98692, 28.79834 ], [ -17.98693, 28.79882 ], [ -17.98603, 28.79861 ], [ -17.98462, 28.79844 ], [ -17.98456, 28.79899 ], [ -17.98479, 28.79939 ], [ -17.98391, 28.79919 ], [ -17.98275, 28.79991 ], [ -17.98239, 28.80048 ], [ -17.98195, 28.80054 ], [ -17.98108, 28.8013 ], [ -17.98088, 28.80156 ], [ -17.98059, 28.80194 ], [ -17.98056, 28.80255 ], [ -17.98038, 28.8028 ], [ -17.97955, 28.80308 ], [ -17.9788, 28.80425 ], [ -17.97848, 28.80441 ], [ -17.97784, 28.80594 ], [ -17.97755, 28.80733 ], [ -17.97717, 28.80818 ], [ -17.97718, 28.80854 ], [ -17.97756, 28.80898 ], [ -17.97763, 28.80939 ], [ -17.97776, 28.80956 ], [ -17.97802, 28.80948 ], [ -17.97838, 28.8099 ], [ -17.97773, 28.80992 ], [ -17.97766, 28.81067 ], [ -17.97819, 28.81103 ], [ -17.97849, 28.81077 ], [ -17.97871, 28.81083 ], [ -17.97892, 28.81141 ], [ -17.97893, 28.8116 ], [ -17.97867, 28.81164 ], [ -17.97867, 28.81185 ], [ -17.97913, 28.81195 ], [ -17.9789, 28.81216 ], [ -17.97804, 28.81186 ], [ -17.97784, 28.81214 ], [ -17.97752, 28.8124 ], [ -17.97698, 28.81169 ], [ -17.97643, 28.81147 ], [ -17.97659, 28.8114 ], [ -17.97641, 28.81106 ], [ -17.97582, 28.81091 ], [ -17.97532, 28.81105 ], [ -17.97482, 28.81139 ], [ -17.97459, 28.81187 ], [ -17.97366, 28.81265 ], [ -17.97353, 28.81283 ], [ -17.97286, 28.8134 ], [ -17.97227, 28.81391 ], [ -17.97197, 28.81409 ], [ -17.97184, 28.81472 ], [ -17.97199, 28.81507 ], [ -17.97244, 28.81498 ], [ -17.97298, 28.81524 ], [ -17.9725, 28.81543 ], [ -17.97253, 28.81561 ], [ -17.97131, 28.81579 ], [ -17.97105, 28.81547 ], [ -17.97036, 28.81586 ], [ -17.97021, 28.8163 ], [ -17.97029, 28.8166 ], [ -17.97077, 28.81688 ], [ -17.97109, 28.81727 ], [ -17.97076, 28.81793 ], [ -17.97056, 28.8183 ], [ -17.97103, 28.81871 ], [ -17.97079, 28.81879 ], [ -17.97083, 28.81906 ], [ -17.97043, 28.81925 ], [ -17.97067, 28.81961 ], [ -17.97064, 28.82004 ], [ -17.97012, 28.82037 ], [ -17.96927, 28.82032 ], [ -17.96916, 28.81975 ], [ -17.96889, 28.81959 ], [ -17.96863, 28.81966 ], [ -17.96808, 28.82034 ], [ -17.96812, 28.82078 ], [ -17.96782, 28.82086 ], [ -17.96714, 28.82148 ], [ -17.96761, 28.82196 ], [ -17.9669, 28.82179 ], [ -17.96667, 28.82243 ], [ -17.96666, 28.82303 ], [ -17.96696, 28.82313 ], [ -17.96704, 28.82354 ], [ -17.96715, 28.82425 ], [ -17.96742, 28.82489 ], [ -17.96758, 28.82501 ], [ -17.96801, 28.82488 ], [ -17.96838, 28.82537 ], [ -17.96829, 28.82562 ], [ -17.96803, 28.82571 ], [ -17.96825, 28.82636 ], [ -17.96764, 28.8257 ], [ -17.96749, 28.8258 ], [ -17.96741, 28.8259 ], [ -17.96681, 28.82613 ], [ -17.96695, 28.82638 ], [ -17.96682, 28.82663 ], [ -17.96702, 28.82685 ], [ -17.96776, 28.82702 ], [ -17.96779, 28.82724 ], [ -17.9676, 28.82746 ], [ -17.96682, 28.82764 ], [ -17.96682, 28.82728 ], [ -17.96616, 28.82688 ], [ -17.966, 28.82655 ], [ -17.96579, 28.82663 ], [ -17.96573, 28.82666 ], [ -17.96542, 28.8266 ], [ -17.96516, 28.82659 ], [ -17.96294, 28.82666 ], [ -17.96127, 28.82739 ], [ -17.96051, 28.82808 ], [ -17.95922, 28.82837 ], [ -17.95821, 28.82907 ], [ -17.95726, 28.83022 ], [ -17.95593, 28.83047 ], [ -17.95549, 28.83087 ], [ -17.95509, 28.83083 ], [ -17.9534, 28.83209 ], [ -17.9525, 28.83312 ], [ -17.95099, 28.83411 ], [ -17.94983, 28.83541 ], [ -17.94944, 28.83664 ], [ -17.94905, 28.83731 ], [ -17.94898, 28.83766 ], [ -17.94918, 28.83804 ], [ -17.949, 28.83849 ], [ -17.94945, 28.83885 ], [ -17.94893, 28.83916 ], [ -17.94861, 28.83903 ], [ -17.94838, 28.83915 ], [ -17.94923, 28.83967 ], [ -17.94882, 28.84041 ], [ -17.94812, 28.84036 ], [ -17.94786, 28.84037 ], [ -17.94773, 28.8405 ], [ -17.94755, 28.84023 ], [ -17.94771, 28.83977 ], [ -17.94751, 28.83954 ], [ -17.94655, 28.83967 ], [ -17.94599, 28.84013 ], [ -17.94583, 28.84082 ], [ -17.94597, 28.84093 ], [ -17.94633, 28.84077 ], [ -17.94637, 28.84153 ], [ -17.9464, 28.84167 ], [ -17.94633, 28.842 ], [ -17.94659, 28.84206 ], [ -17.94642, 28.8425 ], [ -17.94593, 28.84255 ], [ -17.946, 28.84228 ], [ -17.9458, 28.84235 ], [ -17.94527, 28.84236 ], [ -17.94542, 28.84215 ], [ -17.94557, 28.84187 ], [ -17.94542, 28.84173 ], [ -17.94413, 28.84175 ], [ -17.9436, 28.84192 ], [ -17.94331, 28.84077 ], [ -17.94273, 28.84061 ], [ -17.94241, 28.84076 ], [ -17.94241, 28.84146 ], [ -17.94234, 28.84158 ], [ -17.94211, 28.84151 ], [ -17.94202, 28.84225 ], [ -17.94191, 28.84235 ], [ -17.94158, 28.84223 ], [ -17.94126, 28.84266 ], [ -17.94118, 28.84177 ], [ -17.94093, 28.84159 ], [ -17.94056, 28.84156 ], [ -17.94024, 28.84162 ], [ -17.93955, 28.84139 ], [ -17.93954, 28.84104 ], [ -17.93909, 28.84095 ], [ -17.93574, 28.84195 ], [ -17.93472, 28.84225 ], [ -17.9341, 28.84273 ], [ -17.93366, 28.84304 ], [ -17.93307, 28.84345 ], [ -17.93312, 28.84381 ], [ -17.93293, 28.84403 ], [ -17.93195, 28.84389 ], [ -17.93155, 28.84409 ], [ -17.93072, 28.84419 ], [ -17.92975, 28.84475 ], [ -17.92918, 28.84485 ], [ -17.92907, 28.84506 ], [ -17.92853, 28.84528 ], [ -17.92809, 28.84585 ], [ -17.92831, 28.84631 ], [ -17.92821, 28.8471 ], [ -17.92788, 28.84698 ], [ -17.92749, 28.84616 ], [ -17.92696, 28.84609 ], [ -17.92606, 28.8469 ], [ -17.92661, 28.84744 ], [ -17.9266, 28.84794 ], [ -17.92593, 28.84796 ], [ -17.92563, 28.84784 ], [ -17.92544, 28.84752 ], [ -17.92514, 28.84752 ], [ -17.92493, 28.84784 ], [ -17.92482, 28.84823 ], [ -17.92425, 28.84834 ], [ -17.92403, 28.84855 ], [ -17.92405, 28.84891 ], [ -17.92342, 28.84951 ], [ -17.92319, 28.85009 ], [ -17.92333, 28.85068 ], [ -17.92401, 28.85141 ], [ -17.92449, 28.85165 ], [ -17.92469, 28.8523 ], [ -17.92542, 28.85241 ], [ -17.9256, 28.85256 ], [ -17.9256, 28.85292 ], [ -17.9251, 28.85299 ], [ -17.92387, 28.85277 ], [ -17.92375, 28.85304 ], [ -17.92375, 28.85345 ], [ -17.92339, 28.85362 ], [ -17.92307, 28.85359 ], [ -17.92294, 28.8541 ], [ -17.92286, 28.85427 ], [ -17.92269, 28.85453 ], [ -17.92262, 28.85469 ], [ -17.92211, 28.85517 ], [ -17.92242, 28.8555 ], [ -17.92272, 28.85554 ], [ -17.92272, 28.85602 ], [ -17.92236, 28.8558 ], [ -17.92211, 28.85588 ], [ -17.92197, 28.85599 ], [ -17.92161, 28.85605 ], [ -17.92129, 28.85605 ], [ -17.92078, 28.8567 ], [ -17.92049, 28.85698 ], [ -17.92024, 28.85726 ], [ -17.91976, 28.85755 ], [ -17.91964, 28.8573 ], [ -17.91909, 28.8571 ], [ -17.91893, 28.85677 ], [ -17.91844, 28.85655 ], [ -17.91846, 28.85628 ], [ -17.91893, 28.85613 ], [ -17.91852, 28.85589 ], [ -17.91832, 28.8563 ], [ -17.91822, 28.85621 ], [ -17.91819, 28.85584 ], [ -17.91792, 28.85576 ], [ -17.91784, 28.85543 ], [ -17.91766, 28.85536 ], [ -17.9179, 28.85461 ], [ -17.91745, 28.85405 ], [ -17.91766, 28.85386 ], [ -17.91687, 28.85363 ], [ -17.91674, 28.85325 ], [ -17.91646, 28.85357 ], [ -17.91653, 28.85389 ], [ -17.91585, 28.85489 ], [ -17.91593, 28.85542 ], [ -17.91621, 28.8554 ], [ -17.91626, 28.8556 ], [ -17.91562, 28.85571 ], [ -17.91549, 28.8555 ], [ -17.9153, 28.85585 ], [ -17.91479, 28.85629 ], [ -17.91475, 28.85649 ], [ -17.91442, 28.8566 ], [ -17.91429, 28.85654 ], [ -17.91419, 28.85693 ], [ -17.91436, 28.85726 ], [ -17.91415, 28.85757 ], [ -17.91389, 28.85708 ], [ -17.91353, 28.85688 ], [ -17.91336, 28.85715 ], [ -17.91275, 28.85718 ], [ -17.9122, 28.85721 ], [ -17.91166, 28.8575 ], [ -17.91121, 28.85746 ], [ -17.91066, 28.85771 ], [ -17.91068, 28.85758 ], [ -17.91035, 28.85745 ], [ -17.91042, 28.85737 ], [ -17.91023, 28.85721 ], [ -17.9103, 28.85668 ], [ -17.90988, 28.85631 ], [ -17.91003, 28.85578 ], [ -17.90964, 28.85522 ], [ -17.90974, 28.85473 ], [ -17.9096, 28.85461 ], [ -17.90908, 28.85465 ], [ -17.90805, 28.85433 ], [ -17.90777, 28.8545 ], [ -17.90738, 28.85531 ], [ -17.90751, 28.85555 ], [ -17.90744, 28.85584 ], [ -17.90692, 28.85555 ], [ -17.90656, 28.85565 ], [ -17.9067, 28.85514 ], [ -17.90601, 28.85473 ], [ -17.90594, 28.85446 ], [ -17.90566, 28.85467 ], [ -17.90499, 28.85456 ], [ -17.90491, 28.85407 ], [ -17.90507, 28.85295 ], [ -17.90533, 28.85282 ], [ -17.90551, 28.85276 ], [ -17.90567, 28.85234 ], [ -17.90462, 28.85238 ], [ -17.90456, 28.85206 ], [ -17.90422, 28.85191 ], [ -17.90383, 28.852 ], [ -17.90377, 28.85226 ], [ -17.90344, 28.85227 ], [ -17.90373, 28.85126 ], [ -17.90427, 28.85105 ], [ -17.90441, 28.85048 ], [ -17.90473, 28.85015 ], [ -17.90411, 28.85002 ], [ -17.90382, 28.84936 ], [ -17.9046, 28.84941 ], [ -17.90504, 28.84906 ], [ -17.90488, 28.84786 ], [ -17.90351, 28.84655 ], [ -17.90289, 28.84621 ], [ -17.90189, 28.84616 ], [ -17.90165, 28.84592 ], [ -17.90093, 28.84583 ], [ -17.9003, 28.84629 ], [ -17.9003, 28.84613 ], [ -17.89885, 28.84498 ], [ -17.89847, 28.84437 ], [ -17.89717, 28.84326 ], [ -17.89669, 28.84261 ], [ -17.89626, 28.84247 ], [ -17.89589, 28.8421 ], [ -17.89438, 28.84182 ], [ -17.89346, 28.84133 ], [ -17.89152, 28.84095 ], [ -17.89031, 28.84009 ], [ -17.88841, 28.83988 ], [ -17.88681, 28.84049 ], [ -17.88605, 28.84051 ], [ -17.8857, 28.84072 ], [ -17.88534, 28.84129 ], [ -17.88547, 28.84231 ], [ -17.8857, 28.84284 ], [ -17.88545, 28.84344 ], [ -17.88508, 28.84326 ], [ -17.88533, 28.84302 ], [ -17.88486, 28.84251 ], [ -17.88424, 28.84202 ], [ -17.88392, 28.84181 ], [ -17.88349, 28.84171 ], [ -17.88354, 28.84141 ], [ -17.88384, 28.84094 ], [ -17.88369, 28.83996 ], [ -17.88363, 28.83939 ], [ -17.88282, 28.83868 ], [ -17.88141, 28.83837 ], [ -17.88043, 28.8378 ], [ -17.87865, 28.83774 ], [ -17.87744, 28.838 ], [ -17.876, 28.83741 ], [ -17.87528, 28.83687 ], [ -17.87326, 28.83649 ], [ -17.87218, 28.83603 ], [ -17.86842, 28.83533 ], [ -17.86541, 28.83576 ], [ -17.86483, 28.83628 ], [ -17.86425, 28.83643 ], [ -17.8635, 28.83621 ], [ -17.86301, 28.83584 ], [ -17.86272, 28.83611 ], [ -17.86273, 28.83527 ], [ -17.86207, 28.83606 ], [ -17.86217, 28.83528 ], [ -17.86204, 28.83494 ], [ -17.86218, 28.83467 ], [ -17.86239, 28.83462 ], [ -17.86235, 28.83433 ], [ -17.86153, 28.83426 ], [ -17.86025, 28.83368 ], [ -17.85978, 28.83365 ], [ -17.85893, 28.83333 ], [ -17.85871, 28.833 ], [ -17.85811, 28.83277 ], [ -17.85698, 28.83287 ], [ -17.85628, 28.83272 ], [ -17.85379, 28.833 ], [ -17.85352, 28.83335 ], [ -17.85311, 28.83356 ], [ -17.85272, 28.83331 ], [ -17.85212, 28.83331 ], [ -17.8484, 28.83494 ], [ -17.84689, 28.8356 ], [ -17.84556, 28.83522 ], [ -17.84513, 28.83526 ], [ -17.84498, 28.83547 ], [ -17.84476, 28.83546 ], [ -17.84458, 28.83524 ], [ -17.84395, 28.83536 ], [ -17.84336, 28.8358 ], [ -17.84326, 28.8364 ], [ -17.84299, 28.83609 ], [ -17.84285, 28.83498 ], [ -17.84255, 28.83473 ], [ -17.84178, 28.83484 ], [ -17.84091, 28.83465 ], [ -17.83952, 28.8347 ], [ -17.83823, 28.83499 ], [ -17.8376, 28.83492 ], [ -17.83533, 28.83604 ], [ -17.83409, 28.83646 ], [ -17.83216, 28.83638 ], [ -17.83138, 28.83651 ], [ -17.83014, 28.83704 ], [ -17.82881, 28.83693 ], [ -17.82739, 28.83743 ], [ -17.82643, 28.8375 ], [ -17.82631, 28.83777 ], [ -17.82557, 28.83772 ], [ -17.82332, 28.83896 ], [ -17.82277, 28.83957 ], [ -17.82202, 28.83999 ], [ -17.81887, 28.83912 ], [ -17.81662, 28.83911 ], [ -17.81526, 28.83927 ], [ -17.81451, 28.8391 ], [ -17.81157, 28.84043 ], [ -17.8107, 28.84058 ], [ -17.80894, 28.84202 ], [ -17.80859, 28.84254 ], [ -17.80836, 28.84329 ], [ -17.80855, 28.84383 ], [ -17.80909, 28.84405 ], [ -17.8093, 28.8447 ], [ -17.80927, 28.84523 ], [ -17.80889, 28.84534 ], [ -17.80852, 28.84509 ], [ -17.80848, 28.84488 ], [ -17.80778, 28.84466 ], [ -17.80774, 28.8442 ], [ -17.80799, 28.84384 ], [ -17.80778, 28.84333 ], [ -17.80749, 28.84316 ], [ -17.80554, 28.84264 ], [ -17.80404, 28.84202 ], [ -17.80269, 28.84175 ], [ -17.80073, 28.84188 ], [ -17.79946, 28.84272 ], [ -17.79907, 28.8428 ], [ -17.79909, 28.84298 ], [ -17.79956, 28.84298 ], [ -17.8002, 28.84342 ], [ -17.79972, 28.8435 ], [ -17.79985, 28.84378 ], [ -17.79978, 28.84403 ], [ -17.79968, 28.84383 ], [ -17.79929, 28.84385 ], [ -17.79919, 28.84361 ], [ -17.79863, 28.84363 ], [ -17.79847, 28.8433 ], [ -17.79862, 28.84269 ], [ -17.79821, 28.84296 ], [ -17.79773, 28.84312 ], [ -17.79749, 28.84318 ], [ -17.79738, 28.84328 ], [ -17.79717, 28.8433 ], [ -17.79701, 28.84313 ], [ -17.79718, 28.84292 ], [ -17.7967, 28.84283 ], [ -17.79652, 28.84248 ], [ -17.79644, 28.84237 ], [ -17.79663, 28.84191 ], [ -17.79682, 28.84179 ], [ -17.79664, 28.84167 ], [ -17.79637, 28.8419 ], [ -17.79619, 28.84167 ], [ -17.79644, 28.84136 ], [ -17.79599, 28.8411 ], [ -17.79502, 28.84132 ], [ -17.79459, 28.84179 ], [ -17.79492, 28.84186 ], [ -17.79525, 28.84238 ], [ -17.79533, 28.84268 ], [ -17.7951, 28.84293 ], [ -17.79465, 28.84259 ], [ -17.79463, 28.84304 ], [ -17.7944, 28.84301 ], [ -17.79413, 28.84262 ], [ -17.79442, 28.84207 ], [ -17.79402, 28.84214 ], [ -17.79384, 28.84179 ], [ -17.79275, 28.84156 ], [ -17.79216, 28.84241 ], [ -17.79182, 28.84199 ], [ -17.79179, 28.84222 ], [ -17.79163, 28.84227 ], [ -17.7913, 28.84188 ], [ -17.79066, 28.8421 ], [ -17.78983, 28.84361 ], [ -17.7894, 28.84321 ], [ -17.78932, 28.84344 ], [ -17.78905, 28.84364 ], [ -17.78865, 28.84362 ], [ -17.78876, 28.84398 ], [ -17.78773, 28.84343 ], [ -17.78784, 28.84293 ], [ -17.7877, 28.84279 ], [ -17.78797, 28.84183 ], [ -17.78777, 28.84176 ], [ -17.78791, 28.84158 ], [ -17.78774, 28.84136 ], [ -17.78808, 28.84103 ], [ -17.78761, 28.84081 ], [ -17.78778, 28.84054 ], [ -17.78744, 28.84018 ], [ -17.78502, 28.84023 ], [ -17.78472, 28.84043 ], [ -17.78478, 28.84067 ], [ -17.78445, 28.84088 ], [ -17.78423, 28.84075 ], [ -17.78427, 28.84101 ], [ -17.78409, 28.84095 ], [ -17.78409, 28.84071 ], [ -17.78373, 28.84077 ], [ -17.78377, 28.84044 ], [ -17.78355, 28.84041 ], [ -17.78322, 28.84097 ], [ -17.78288, 28.83976 ], [ -17.78266, 28.84005 ], [ -17.78261, 28.84045 ], [ -17.78239, 28.84058 ], [ -17.78224, 28.84047 ], [ -17.78211, 28.84096 ], [ -17.78182, 28.84097 ], [ -17.78163, 28.8407 ], [ -17.78189, 28.83987 ], [ -17.7816, 28.84012 ], [ -17.78101, 28.83989 ], [ -17.78127, 28.83949 ], [ -17.7809, 28.83917 ], [ -17.78059, 28.83908 ], [ -17.78048, 28.83895 ], [ -17.78003, 28.8391 ], [ -17.77986, 28.83972 ], [ -17.77953, 28.83995 ], [ -17.77923, 28.83954 ], [ -17.77841, 28.83949 ], [ -17.77829, 28.83958 ], [ -17.77818, 28.83956 ], [ -17.77806, 28.8395 ], [ -17.77769, 28.84017 ], [ -17.77745, 28.84024 ], [ -17.77769, 28.83936 ], [ -17.77756, 28.83888 ], [ -17.77785, 28.83877 ], [ -17.77735, 28.83861 ], [ -17.77781, 28.83836 ], [ -17.77826, 28.83749 ], [ -17.7778, 28.83727 ], [ -17.77738, 28.83736 ], [ -17.77728, 28.83663 ], [ -17.77703, 28.83633 ], [ -17.77732, 28.83572 ], [ -17.77757, 28.83561 ], [ -17.7775, 28.83523 ], [ -17.77699, 28.83494 ], [ -17.77657, 28.83541 ], [ -17.77646, 28.83515 ], [ -17.77623, 28.83526 ], [ -17.77629, 28.83489 ], [ -17.77601, 28.83492 ], [ -17.77624, 28.83452 ], [ -17.77674, 28.83432 ], [ -17.77655, 28.83373 ], [ -17.77621, 28.83369 ], [ -17.77598, 28.83398 ], [ -17.77577, 28.83397 ], [ -17.77592, 28.83377 ], [ -17.77575, 28.83346 ], [ -17.77611, 28.83334 ], [ -17.77641, 28.83269 ], [ -17.77623, 28.83249 ], [ -17.77621, 28.83231 ], [ -17.77585, 28.8321 ], [ -17.77577, 28.83178 ], [ -17.77492, 28.83093 ], [ -17.77462, 28.83106 ], [ -17.77448, 28.83085 ], [ -17.77404, 28.83092 ], [ -17.77404, 28.83129 ], [ -17.77354, 28.83174 ], [ -17.77362, 28.832 ], [ -17.77347, 28.83221 ], [ -17.77325, 28.83216 ], [ -17.77326, 28.83191 ], [ -17.77302, 28.83179 ], [ -17.77328, 28.83127 ], [ -17.77366, 28.83131 ], [ -17.77361, 28.8311 ], [ -17.77389, 28.83087 ], [ -17.77397, 28.83024 ], [ -17.77387, 28.83005 ], [ -17.77423, 28.82953 ], [ -17.77406, 28.82855 ], [ -17.77431, 28.82832 ], [ -17.77467, 28.82699 ], [ -17.77457, 28.82664 ], [ -17.7747, 28.82659 ], [ -17.77479, 28.82638 ], [ -17.77458, 28.82604 ], [ -17.77454, 28.8259 ], [ -17.77451, 28.82537 ], [ -17.77407, 28.82504 ], [ -17.77316, 28.82517 ], [ -17.77316, 28.82469 ], [ -17.77325, 28.82439 ], [ -17.77323, 28.8242 ], [ -17.77261, 28.82388 ], [ -17.77199, 28.8241 ], [ -17.77037, 28.8252 ], [ -17.77013, 28.82525 ], [ -17.76942, 28.82474 ], [ -17.76961, 28.82452 ], [ -17.76946, 28.8243 ], [ -17.77002, 28.82415 ], [ -17.7704, 28.82355 ], [ -17.77043, 28.82331 ], [ -17.77018, 28.82296 ], [ -17.7705, 28.8226 ], [ -17.77033, 28.82235 ], [ -17.77072, 28.82206 ], [ -17.77067, 28.82177 ], [ -17.7711, 28.82141 ], [ -17.77104, 28.82116 ], [ -17.77061, 28.82102 ], [ -17.77055, 28.81978 ], [ -17.77027, 28.81925 ], [ -17.77008, 28.81915 ], [ -17.76983, 28.8193 ], [ -17.7697, 28.81912 ], [ -17.77012, 28.81892 ], [ -17.77036, 28.81854 ], [ -17.77026, 28.81843 ], [ -17.76944, 28.81752 ], [ -17.76883, 28.81729 ], [ -17.76898, 28.81684 ], [ -17.76858, 28.81682 ], [ -17.76835, 28.81653 ], [ -17.76858, 28.81623 ], [ -17.76848, 28.81595 ], [ -17.76706, 28.81578 ], [ -17.76661, 28.81515 ], [ -17.7656, 28.81492 ], [ -17.76572, 28.81455 ], [ -17.7654, 28.81445 ], [ -17.76545, 28.81431 ], [ -17.76627, 28.81392 ], [ -17.76633, 28.81371 ], [ -17.76595, 28.81305 ], [ -17.76553, 28.81282 ], [ -17.76567, 28.81258 ], [ -17.76547, 28.81188 ], [ -17.76563, 28.8116 ], [ -17.76544, 28.81116 ], [ -17.7647, 28.81084 ], [ -17.76411, 28.81089 ], [ -17.76397, 28.81122 ], [ -17.76413, 28.81146 ], [ -17.76393, 28.8117 ], [ -17.76448, 28.81182 ], [ -17.76439, 28.81205 ], [ -17.76257, 28.81162 ], [ -17.76231, 28.81168 ], [ -17.76216, 28.81102 ], [ -17.76244, 28.81097 ], [ -17.76247, 28.81121 ], [ -17.76307, 28.8114 ], [ -17.76354, 28.81081 ], [ -17.76358, 28.81049 ], [ -17.7632, 28.80992 ], [ -17.76302, 28.81015 ], [ -17.76224, 28.81013 ], [ -17.76218, 28.81 ], [ -17.76298, 28.80937 ], [ -17.76302, 28.80916 ], [ -17.76268, 28.8088 ], [ -17.7624, 28.80903 ], [ -17.76179, 28.80895 ], [ -17.76176, 28.80875 ], [ -17.76195, 28.80861 ], [ -17.76116, 28.8076 ], [ -17.76129, 28.80736 ], [ -17.76127, 28.80724 ], [ -17.76147, 28.80661 ], [ -17.76138, 28.80639 ], [ -17.76176, 28.80611 ], [ -17.7617, 28.80558 ], [ -17.76111, 28.80492 ], [ -17.76078, 28.80486 ], [ -17.75997, 28.80563 ], [ -17.75998, 28.80543 ], [ -17.76044, 28.80503 ], [ -17.76045, 28.80475 ], [ -17.75986, 28.80482 ], [ -17.76003, 28.80434 ], [ -17.76019, 28.80433 ], [ -17.76013, 28.80401 ], [ -17.75911, 28.80413 ], [ -17.75943, 28.80371 ], [ -17.75921, 28.8036 ], [ -17.75932, 28.80311 ], [ -17.75904, 28.80303 ], [ -17.7593, 28.80275 ], [ -17.75927, 28.80244 ], [ -17.75947, 28.80244 ], [ -17.75924, 28.80228 ], [ -17.75957, 28.80203 ], [ -17.75967, 28.80168 ], [ -17.75915, 28.80079 ], [ -17.75926, 28.79996 ], [ -17.75917, 28.79864 ], [ -17.75864, 28.79614 ], [ -17.75876, 28.79557 ], [ -17.75861, 28.7955 ], [ -17.75877, 28.79506 ], [ -17.75854, 28.7943 ], [ -17.75834, 28.79415 ], [ -17.75849, 28.79404 ], [ -17.75833, 28.79394 ], [ -17.75858, 28.79369 ], [ -17.75865, 28.79328 ], [ -17.75855, 28.7921 ], [ -17.75821, 28.79107 ], [ -17.75752, 28.79024 ], [ -17.75716, 28.79014 ], [ -17.75726, 28.78952 ], [ -17.75701, 28.78936 ], [ -17.75742, 28.78925 ], [ -17.75817, 28.78745 ], [ -17.75804, 28.78703 ], [ -17.75746, 28.78638 ], [ -17.75713, 28.78643 ], [ -17.75664, 28.78694 ], [ -17.75638, 28.78701 ], [ -17.75572, 28.78674 ], [ -17.75574, 28.78668 ], [ -17.75567, 28.78644 ], [ -17.75527, 28.78664 ], [ -17.75464, 28.78628 ], [ -17.75523, 28.78618 ], [ -17.75446, 28.78619 ], [ -17.75493, 28.78594 ], [ -17.75507, 28.78563 ], [ -17.75586, 28.78534 ], [ -17.75554, 28.78438 ], [ -17.75473, 28.78424 ], [ -17.75475, 28.78399 ], [ -17.75456, 28.784 ], [ -17.75407, 28.78302 ], [ -17.75362, 28.78251 ], [ -17.75357, 28.78253 ], [ -17.75317, 28.78268 ], [ -17.75345, 28.78213 ], [ -17.75289, 28.78129 ], [ -17.75247, 28.78146 ], [ -17.75242, 28.78126 ], [ -17.75224, 28.78128 ], [ -17.75315, 28.78081 ], [ -17.7532, 28.78027 ], [ -17.75302, 28.78004 ], [ -17.75325, 28.77993 ], [ -17.75345, 28.77903 ], [ -17.75318, 28.77775 ], [ -17.75282, 28.77715 ], [ -17.75253, 28.77615 ], [ -17.75198, 28.77546 ], [ -17.75106, 28.77346 ], [ -17.7503, 28.7726 ], [ -17.75009, 28.77189 ], [ -17.74861, 28.77052 ], [ -17.748, 28.77018 ], [ -17.74786, 28.76964 ], [ -17.74698, 28.76914 ], [ -17.74661, 28.76852 ], [ -17.74469, 28.76762 ], [ -17.74489, 28.76717 ], [ -17.74483, 28.76675 ], [ -17.74373, 28.76594 ], [ -17.74404, 28.76517 ], [ -17.74393, 28.76472 ], [ -17.74403, 28.7646 ], [ -17.74338, 28.76343 ], [ -17.74342, 28.76314 ], [ -17.74326, 28.76263 ], [ -17.74309, 28.76246 ], [ -17.743, 28.76227 ], [ -17.74293, 28.76195 ], [ -17.74245, 28.76154 ], [ -17.74223, 28.76153 ], [ -17.74213, 28.76113 ], [ -17.74151, 28.76046 ], [ -17.73902, 28.75871 ], [ -17.73778, 28.75921 ], [ -17.7374, 28.75991 ], [ -17.7368, 28.76006 ], [ -17.73689, 28.75966 ], [ -17.73738, 28.75955 ], [ -17.73743, 28.75916 ], [ -17.73699, 28.75909 ], [ -17.73643, 28.75827 ], [ -17.73543, 28.75882 ], [ -17.73503, 28.75836 ], [ -17.73546, 28.75778 ], [ -17.73495, 28.75766 ], [ -17.73489, 28.75701 ], [ -17.73505, 28.75695 ], [ -17.734, 28.75665 ], [ -17.7333, 28.75613 ], [ -17.7337, 28.75494 ], [ -17.73419, 28.7549 ], [ -17.73435, 28.75467 ], [ -17.73429, 28.75402 ], [ -17.734, 28.75366 ], [ -17.73427, 28.75362 ], [ -17.7344, 28.75309 ], [ -17.73402, 28.75261 ], [ -17.73341, 28.75229 ], [ -17.7332, 28.75157 ], [ -17.73295, 28.75137 ], [ -17.73262, 28.75089 ], [ -17.73114, 28.75049 ], [ -17.73075, 28.7501 ], [ -17.73093, 28.74926 ], [ -17.73079, 28.74921 ], [ -17.73086, 28.74898 ], [ -17.73064, 28.74853 ], [ -17.73101, 28.74818 ], [ -17.73046, 28.74766 ], [ -17.73019, 28.7479 ], [ -17.73008, 28.74772 ], [ -17.73018, 28.74721 ], [ -17.73001, 28.74713 ], [ -17.73021, 28.747 ], [ -17.73, 28.74685 ], [ -17.73021, 28.74644 ], [ -17.73005, 28.74621 ], [ -17.73021, 28.74586 ], [ -17.72981, 28.74574 ], [ -17.73031, 28.74508 ], [ -17.72979, 28.74474 ], [ -17.72999, 28.7446 ], [ -17.72979, 28.7444 ], [ -17.72993, 28.74411 ], [ -17.72914, 28.74336 ], [ -17.72851, 28.74323 ], [ -17.72772, 28.74249 ], [ -17.72718, 28.74248 ], [ -17.72714, 28.74304 ], [ -17.72651, 28.74312 ], [ -17.72637, 28.7434 ], [ -17.72601, 28.74296 ], [ -17.72572, 28.74305 ], [ -17.72553, 28.74286 ], [ -17.72477, 28.74305 ], [ -17.72489, 28.7426 ], [ -17.72484, 28.74244 ], [ -17.72458, 28.74241 ], [ -17.7247, 28.74227 ], [ -17.7246, 28.74185 ], [ -17.72475, 28.74168 ], [ -17.72467, 28.74154 ], [ -17.72499, 28.74139 ], [ -17.72473, 28.74113 ], [ -17.72501, 28.74107 ], [ -17.72515, 28.74053 ], [ -17.72542, 28.74038 ], [ -17.72536, 28.74022 ], [ -17.72499, 28.74017 ], [ -17.72507, 28.73969 ], [ -17.72428, 28.73843 ], [ -17.72438, 28.73824 ], [ -17.72475, 28.73816 ], [ -17.72492, 28.73751 ], [ -17.72531, 28.73705 ], [ -17.72521, 28.73659 ], [ -17.72573, 28.73609 ], [ -17.72584, 28.73558 ], [ -17.72624, 28.7356 ], [ -17.72644, 28.7354 ], [ -17.7264, 28.73518 ], [ -17.72572, 28.73509 ], [ -17.72578, 28.73484 ], [ -17.72612, 28.73469 ], [ -17.72593, 28.7342 ], [ -17.72647, 28.73387 ], [ -17.72658, 28.73346 ], [ -17.72674, 28.73345 ], [ -17.72691, 28.73311 ], [ -17.72693, 28.7328 ], [ -17.72728, 28.7325 ], [ -17.72732, 28.73216 ], [ -17.72789, 28.73196 ], [ -17.72819, 28.73153 ], [ -17.72923, 28.73142 ], [ -17.72903, 28.73086 ], [ -17.72923, 28.72994 ], [ -17.72993, 28.72989 ], [ -17.73053, 28.73011 ], [ -17.73083, 28.72977 ], [ -17.73064, 28.72957 ], [ -17.7315, 28.72928 ], [ -17.73164, 28.72885 ], [ -17.73163, 28.72864 ], [ -17.73174, 28.72838 ], [ -17.73161, 28.72819 ], [ -17.73129, 28.7282 ], [ -17.73123, 28.72799 ], [ -17.7316, 28.72767 ], [ -17.73129, 28.72718 ], [ -17.73106, 28.72725 ], [ -17.73099, 28.72684 ], [ -17.7317, 28.72612 ], [ -17.73169, 28.72582 ], [ -17.73209, 28.72534 ], [ -17.73241, 28.72527 ], [ -17.73248, 28.7251 ], [ -17.73306, 28.72506 ], [ -17.73296, 28.72465 ], [ -17.73293, 28.7244 ], [ -17.73298, 28.72417 ], [ -17.7332, 28.72416 ], [ -17.73322, 28.72354 ], [ -17.73276, 28.72331 ], [ -17.7323, 28.72274 ], [ -17.73219, 28.72227 ], [ -17.73238, 28.72154 ], [ -17.73268, 28.72146 ], [ -17.7329, 28.72103 ], [ -17.7329, 28.72074 ], [ -17.73261, 28.72058 ], [ -17.7326, 28.72022 ], [ -17.73306, 28.71999 ], [ -17.73334, 28.71952 ], [ -17.73352, 28.71947 ], [ -17.73383, 28.71979 ], [ -17.73498, 28.71913 ], [ -17.73536, 28.71803 ], [ -17.7356, 28.71778 ], [ -17.73597, 28.71775 ], [ -17.73602, 28.71744 ], [ -17.73648, 28.71693 ], [ -17.73647, 28.71672 ], [ -17.73676, 28.71657 ], [ -17.7371, 28.71608 ], [ -17.73733, 28.71611 ], [ -17.73753, 28.71588 ], [ -17.73807, 28.71569 ], [ -17.73875, 28.71485 ], [ -17.73978, 28.71485 ], [ -17.74003, 28.71516 ], [ -17.74057, 28.71478 ], [ -17.74072, 28.7145 ], [ -17.74148, 28.71481 ], [ -17.74164, 28.71445 ], [ -17.7419, 28.71457 ], [ -17.74194, 28.71443 ], [ -17.74311, 28.71406 ], [ -17.74342, 28.71369 ], [ -17.74375, 28.71363 ], [ -17.74393, 28.7133 ], [ -17.74395, 28.71304 ], [ -17.74372, 28.71285 ], [ -17.74393, 28.71273 ], [ -17.74385, 28.71243 ], [ -17.74447, 28.71222 ], [ -17.74464, 28.712 ], [ -17.74524, 28.71227 ], [ -17.74644, 28.71212 ], [ -17.74643, 28.71181 ], [ -17.74685, 28.71167 ], [ -17.7475, 28.71099 ], [ -17.74741, 28.71042 ], [ -17.74762, 28.70993 ], [ -17.74779, 28.70989 ], [ -17.74771, 28.70972 ], [ -17.74864, 28.70931 ], [ -17.74893, 28.70899 ], [ -17.74881, 28.70897 ], [ -17.74914, 28.70876 ], [ -17.74906, 28.70861 ], [ -17.7496, 28.70863 ], [ -17.74973, 28.70847 ], [ -17.74961, 28.70832 ], [ -17.75027, 28.70813 ], [ -17.75069, 28.70728 ], [ -17.75157, 28.70677 ], [ -17.75172, 28.70571 ], [ -17.75213, 28.70531 ], [ -17.75217, 28.70527 ], [ -17.75264, 28.70429 ], [ -17.75353, 28.70394 ], [ -17.75415, 28.70315 ], [ -17.75519, 28.70229 ], [ -17.75611, 28.70189 ], [ -17.75637, 28.70106 ], [ -17.75708, 28.70032 ], [ -17.75756, 28.69934 ], [ -17.75779, 28.69842 ], [ -17.75928, 28.69711 ], [ -17.75951, 28.69602 ], [ -17.75955, 28.69243 ], [ -17.75998, 28.69103 ], [ -17.75947, 28.68865 ], [ -17.75955, 28.68744 ], [ -17.75914, 28.68733 ], [ -17.75881, 28.6876 ], [ -17.7586, 28.68763 ], [ -17.75961, 28.68591 ], [ -17.75945, 28.68409 ], [ -17.75962, 28.68404 ], [ -17.75991, 28.68548 ], [ -17.75999, 28.68644 ], [ -17.76242, 28.68481 ], [ -17.76325, 28.68349 ], [ -17.76356, 28.68305 ], [ -17.76373, 28.68286 ], [ -17.76232, 28.68237 ], [ -17.76245, 28.68201 ], [ -17.76463, 28.68186 ], [ -17.76551, 28.68041 ], [ -17.76549, 28.68004 ], [ -17.76565, 28.68001 ], [ -17.76574, 28.67968 ], [ -17.76466, 28.67287 ], [ -17.76391, 28.6712 ], [ -17.76407, 28.67116 ], [ -17.76526, 28.67377 ], [ -17.76588, 28.67764 ], [ -17.76645, 28.67773 ], [ -17.76651, 28.678 ], [ -17.76617, 28.67813 ], [ -17.76636, 28.67934 ], [ -17.76642, 28.67933 ], [ -17.7672, 28.67924 ], [ -17.76733, 28.67902 ], [ -17.76756, 28.67913 ], [ -17.7676, 28.67915 ], [ -17.76838, 28.67784 ], [ -17.76826, 28.67777 ], [ -17.76838, 28.67776 ], [ -17.76834, 28.67751 ], [ -17.76875, 28.67733 ], [ -17.76858, 28.67629 ], [ -17.76814, 28.67363 ], [ -17.76924, 28.67361 ], [ -17.76917, 28.67291 ], [ -17.76895, 28.67286 ], [ -17.76893, 28.67277 ], [ -17.76904, 28.67268 ], [ -17.76895, 28.67213 ], [ -17.76827, 28.67222 ], [ -17.76846, 28.67325 ], [ -17.76826, 28.67328 ], [ -17.76804, 28.67205 ], [ -17.76856, 28.67192 ], [ -17.76881, 28.67147 ], [ -17.76903, 28.67026 ], [ -17.7689, 28.66952 ], [ -17.76853, 28.6689 ], [ -17.7683, 28.66884 ], [ -17.76746, 28.66907 ], [ -17.76759, 28.66954 ], [ -17.76739, 28.66954 ], [ -17.76726, 28.669 ], [ -17.76826, 28.66865 ], [ -17.76832, 28.66817 ], [ -17.76772, 28.66699 ], [ -17.76728, 28.6669 ], [ -17.76749, 28.66666 ], [ -17.76741, 28.66628 ], [ -17.76638, 28.66455 ], [ -17.76632, 28.66451 ], [ -17.76441, 28.66303 ], [ -17.76374, 28.66218 ], [ -17.76326, 28.66208 ], [ -17.76297, 28.66299 ], [ -17.76278, 28.66238 ], [ -17.76252, 28.66243 ], [ -17.76245, 28.66263 ], [ -17.7623, 28.66246 ], [ -17.76207, 28.66258 ], [ -17.76179, 28.66242 ], [ -17.76166, 28.66209 ], [ -17.76174, 28.66194 ], [ -17.76121, 28.66182 ], [ -17.76145, 28.66177 ], [ -17.76168, 28.66132 ], [ -17.76252, 28.66069 ], [ -17.76287, 28.66077 ], [ -17.76293, 28.66061 ], [ -17.76253, 28.66042 ], [ -17.76258, 28.66016 ], [ -17.76242, 28.66007 ], [ -17.76223, 28.66011 ], [ -17.76215, 28.66059 ], [ -17.76158, 28.66058 ], [ -17.76182, 28.66045 ], [ -17.76157, 28.65997 ], [ -17.76183, 28.65986 ], [ -17.76152, 28.6597 ], [ -17.76174, 28.65947 ], [ -17.76161, 28.65938 ], [ -17.76135, 28.65975 ], [ -17.76116, 28.65961 ], [ -17.76129, 28.6593 ], [ -17.76122, 28.65884 ], [ -17.76096, 28.65852 ], [ -17.76045, 28.65852 ], [ -17.7602, 28.65834 ], [ -17.76007, 28.65845 ], [ -17.76012, 28.6581 ], [ -17.76069, 28.65788 ], [ -17.76021, 28.65766 ], [ -17.7606, 28.65741 ], [ -17.76001, 28.65725 ], [ -17.7613, 28.65627 ], [ -17.76129, 28.65608 ], [ -17.76119, 28.65591 ], [ -17.76149, 28.6558 ], [ -17.76201, 28.65589 ], [ -17.76218, 28.65554 ], [ -17.76208, 28.6549 ], [ -17.7615, 28.65491 ], [ -17.76123, 28.65463 ], [ -17.76009, 28.6545 ], [ -17.76016, 28.6543 ], [ -17.7613, 28.65449 ], [ -17.76155, 28.65438 ], [ -17.76153, 28.65406 ], [ -17.7613, 28.65371 ], [ -17.76118, 28.65353 ], [ -17.76106, 28.65346 ], [ -17.76072, 28.6538 ], [ -17.76042, 28.65358 ], [ -17.76003, 28.65362 ], [ -17.76046, 28.65346 ], [ -17.76042, 28.65315 ], [ -17.75978, 28.65247 ], [ -17.75948, 28.65261 ], [ -17.75936, 28.6521 ], [ -17.75866, 28.65194 ], [ -17.75832, 28.65231 ], [ -17.75865, 28.65163 ], [ -17.7587, 28.65114 ], [ -17.75811, 28.65162 ], [ -17.75795, 28.65153 ], [ -17.75805, 28.65117 ], [ -17.7574, 28.65118 ], [ -17.75829, 28.65018 ], [ -17.75776, 28.65046 ], [ -17.75735, 28.64983 ], [ -17.75669, 28.64978 ], [ -17.75709, 28.64948 ], [ -17.75708, 28.64932 ], [ -17.75603, 28.64948 ], [ -17.75662, 28.64911 ], [ -17.7564, 28.64895 ], [ -17.75668, 28.64871 ], [ -17.75641, 28.64865 ], [ -17.75671, 28.64852 ], [ -17.75658, 28.64839 ], [ -17.75662, 28.64804 ], [ -17.75678, 28.64787 ], [ -17.7563, 28.64783 ], [ -17.75627, 28.64762 ], [ -17.75584, 28.6475 ], [ -17.75639, 28.64741 ], [ -17.7564, 28.64717 ], [ -17.75682, 28.64696 ], [ -17.75659, 28.6469 ], [ -17.756, 28.64718 ], [ -17.75601, 28.64699 ], [ -17.75643, 28.64675 ], [ -17.75553, 28.64661 ], [ -17.75632, 28.6463 ], [ -17.75622, 28.64612 ], [ -17.75636, 28.64574 ], [ -17.75714, 28.64628 ], [ -17.75646, 28.6456 ], [ -17.75658, 28.64543 ], [ -17.75692, 28.64553 ], [ -17.7567, 28.6452 ], [ -17.75716, 28.6451 ], [ -17.75715, 28.64464 ], [ -17.75742, 28.64475 ], [ -17.75748, 28.64458 ], [ -17.7579, 28.64456 ], [ -17.75775, 28.64401 ], [ -17.75787, 28.64398 ], [ -17.75781, 28.64376 ], [ -17.75781, 28.64367 ], [ -17.75673, 28.6433 ], [ -17.75646, 28.64301 ], [ -17.75711, 28.64263 ], [ -17.7575, 28.64288 ], [ -17.7578, 28.64285 ], [ -17.75777, 28.64257 ], [ -17.75724, 28.64243 ], [ -17.75743, 28.64225 ], [ -17.75776, 28.64237 ], [ -17.7579, 28.64217 ], [ -17.75698, 28.64207 ], [ -17.75774, 28.642 ], [ -17.75756, 28.64184 ], [ -17.75774, 28.64156 ], [ -17.75763, 28.64114 ], [ -17.75692, 28.64103 ], [ -17.75673, 28.64084 ], [ -17.75702, 28.64056 ], [ -17.75788, 28.64077 ], [ -17.75796, 28.63942 ], [ -17.75751, 28.63904 ], [ -17.75717, 28.63931 ], [ -17.75674, 28.63921 ], [ -17.75699, 28.63879 ], [ -17.75682, 28.63875 ], [ -17.75692, 28.63857 ], [ -17.75739, 28.6383 ], [ -17.75731, 28.63793 ], [ -17.75706, 28.63802 ], [ -17.75662, 28.6376 ], [ -17.7549, 28.6377 ], [ -17.7544, 28.63743 ], [ -17.75437, 28.63356 ], [ -17.7541, 28.63332 ], [ -17.75396, 28.63325 ], [ -17.75413, 28.63294 ], [ -17.75365, 28.63294 ], [ -17.75442, 28.6327 ], [ -17.75401, 28.63256 ], [ -17.75403, 28.63213 ], [ -17.7538, 28.63226 ], [ -17.75379, 28.63209 ], [ -17.75362, 28.63208 ], [ -17.75373, 28.63186 ], [ -17.75411, 28.63181 ], [ -17.75381, 28.63138 ], [ -17.75363, 28.63166 ], [ -17.75343, 28.63168 ], [ -17.75373, 28.63101 ], [ -17.75363, 28.63095 ], [ -17.75376, 28.63081 ], [ -17.75356, 28.63056 ], [ -17.75381, 28.6304 ], [ -17.75382, 28.63035 ], [ -17.75397, 28.62966 ], [ -17.75376, 28.6285 ], [ -17.75394, 28.62844 ], [ -17.75332, 28.62754 ], [ -17.75268, 28.62757 ], [ -17.7529, 28.6271 ], [ -17.75295, 28.62721 ], [ -17.75311, 28.62712 ], [ -17.75297, 28.62701 ], [ -17.75304, 28.62679 ], [ -17.75273, 28.6269 ], [ -17.75297, 28.62656 ], [ -17.7527, 28.62662 ], [ -17.75241, 28.62647 ], [ -17.7522, 28.62661 ], [ -17.75221, 28.62647 ], [ -17.75151, 28.62643 ], [ -17.75142, 28.62629 ], [ -17.7514, 28.62608 ], [ -17.75059, 28.62607 ], [ -17.75084, 28.62556 ], [ -17.75077, 28.62524 ], [ -17.75107, 28.62486 ], [ -17.75135, 28.6249 ], [ -17.75139, 28.62468 ], [ -17.75078, 28.62491 ], [ -17.75037, 28.62476 ], [ -17.75113, 28.62421 ], [ -17.75091, 28.62406 ], [ -17.75051, 28.62436 ], [ -17.7499, 28.62439 ], [ -17.75004, 28.62422 ], [ -17.75062, 28.62415 ], [ -17.75088, 28.62385 ], [ -17.75037, 28.62384 ], [ -17.75056, 28.6235 ], [ -17.75079, 28.62348 ], [ -17.7506, 28.62326 ], [ -17.7509, 28.62297 ], [ -17.75064, 28.62284 ], [ -17.75142, 28.62275 ], [ -17.75022, 28.62248 ], [ -17.75092, 28.62232 ], [ -17.75018, 28.62206 ], [ -17.75036, 28.62172 ], [ -17.7506, 28.62183 ], [ -17.75033, 28.62164 ], [ -17.75045, 28.62159 ], [ -17.75034, 28.62148 ], [ -17.75052, 28.6215 ], [ -17.75024, 28.62134 ], [ -17.75031, 28.62118 ], [ -17.75039, 28.62128 ], [ -17.75077, 28.62107 ], [ -17.75121, 28.62122 ], [ -17.75125, 28.62103 ], [ -17.7507, 28.621 ], [ -17.75009, 28.62063 ], [ -17.75013, 28.62046 ], [ -17.75071, 28.62027 ], [ -17.75082, 28.62001 ], [ -17.75115, 28.61983 ], [ -17.75089, 28.61969 ], [ -17.75087, 28.61945 ], [ -17.75148, 28.61891 ], [ -17.75131, 28.61879 ], [ -17.75163, 28.61873 ], [ -17.75177, 28.61853 ], [ -17.75168, 28.61843 ], [ -17.75198, 28.61821 ], [ -17.75224, 28.61717 ], [ -17.75286, 28.61708 ], [ -17.75209, 28.61668 ], [ -17.75194, 28.61633 ], [ -17.75239, 28.61608 ], [ -17.75281, 28.61624 ], [ -17.75358, 28.61556 ], [ -17.75385, 28.61548 ], [ -17.75355, 28.61519 ], [ -17.75352, 28.61495 ], [ -17.75384, 28.61484 ], [ -17.7544, 28.61508 ], [ -17.75447, 28.6149 ], [ -17.75425, 28.61477 ], [ -17.75448, 28.6144 ], [ -17.75514, 28.61443 ], [ -17.75491, 28.61414 ], [ -17.75442, 28.61398 ], [ -17.75435, 28.61388 ], [ -17.75458, 28.61382 ], [ -17.75442, 28.61364 ], [ -17.75503, 28.61363 ], [ -17.7555, 28.61382 ], [ -17.75546, 28.61364 ], [ -17.75548, 28.61337 ], [ -17.75577, 28.6134 ], [ -17.75592, 28.61274 ], [ -17.75617, 28.61281 ], [ -17.75647, 28.61246 ], [ -17.75604, 28.61235 ], [ -17.75596, 28.61204 ], [ -17.75683, 28.61175 ], [ -17.75577, 28.61157 ], [ -17.75601, 28.61135 ], [ -17.75641, 28.61147 ], [ -17.75679, 28.61126 ], [ -17.75642, 28.61123 ], [ -17.75653, 28.61104 ], [ -17.75638, 28.61072 ], [ -17.75638, 28.61062 ], [ -17.7565, 28.61032 ], [ -17.75607, 28.61039 ], [ -17.7562, 28.61005 ], [ -17.75549, 28.60986 ], [ -17.75562, 28.60961 ], [ -17.75612, 28.60983 ], [ -17.75627, 28.60975 ], [ -17.75522, 28.60917 ], [ -17.75538, 28.60912 ], [ -17.75537, 28.60888 ], [ -17.75559, 28.6089 ], [ -17.75551, 28.60878 ], [ -17.75609, 28.60881 ], [ -17.75621, 28.60862 ], [ -17.75584, 28.60828 ], [ -17.75645, 28.60826 ], [ -17.75666, 28.60794 ], [ -17.75636, 28.6078 ], [ -17.75653, 28.6077 ], [ -17.75647, 28.60753 ], [ -17.75619, 28.60757 ], [ -17.75632, 28.60722 ], [ -17.75602, 28.60714 ], [ -17.75584, 28.60707 ], [ -17.75573, 28.60724 ], [ -17.7556, 28.60694 ], [ -17.7553, 28.60727 ], [ -17.75507, 28.60721 ], [ -17.75522, 28.60719 ], [ -17.75506, 28.60692 ], [ -17.75552, 28.60656 ], [ -17.75546, 28.60634 ], [ -17.75541, 28.60594 ], [ -17.75506, 28.60589 ], [ -17.75503, 28.6056 ], [ -17.7556, 28.60489 ], [ -17.75518, 28.60498 ], [ -17.7551, 28.60487 ], [ -17.75529, 28.60482 ], [ -17.75518, 28.60464 ], [ -17.75491, 28.60461 ], [ -17.75589, 28.60399 ], [ -17.7549, 28.60395 ], [ -17.75515, 28.60376 ], [ -17.75515, 28.60356 ], [ -17.75452, 28.60368 ], [ -17.75472, 28.60354 ], [ -17.75459, 28.60353 ], [ -17.75462, 28.60323 ], [ -17.755, 28.6034 ], [ -17.75513, 28.60324 ], [ -17.75604, 28.60326 ], [ -17.75588, 28.6028 ], [ -17.75546, 28.60297 ], [ -17.75542, 28.60289 ], [ -17.75539, 28.60244 ], [ -17.75605, 28.60187 ], [ -17.75532, 28.60177 ], [ -17.7555, 28.60137 ], [ -17.75517, 28.60153 ], [ -17.75533, 28.60128 ], [ -17.75522, 28.6012 ], [ -17.75493, 28.60158 ], [ -17.75491, 28.60144 ], [ -17.75463, 28.60144 ], [ -17.75501, 28.60114 ], [ -17.75488, 28.6009 ], [ -17.75492, 28.60064 ], [ -17.75615, 28.60079 ], [ -17.7558, 28.6003 ], [ -17.75539, 28.60029 ], [ -17.75548, 28.60021 ], [ -17.75533, 28.60004 ], [ -17.75582, 28.6001 ], [ -17.75583, 28.59992 ], [ -17.75592, 28.59988 ], [ -17.75601, 28.59968 ], [ -17.75512, 28.59963 ], [ -17.75533, 28.59937 ], [ -17.75554, 28.59934 ], [ -17.75549, 28.59908 ], [ -17.75493, 28.59889 ], [ -17.75523, 28.59884 ], [ -17.75493, 28.59818 ], [ -17.7552, 28.59796 ], [ -17.75497, 28.59787 ], [ -17.75525, 28.59777 ], [ -17.7549, 28.59763 ], [ -17.75508, 28.5975 ], [ -17.75464, 28.59742 ], [ -17.75528, 28.59735 ], [ -17.75512, 28.59723 ], [ -17.75544, 28.59705 ], [ -17.75527, 28.59701 ], [ -17.75527, 28.59673 ], [ -17.75605, 28.59667 ], [ -17.75572, 28.59646 ], [ -17.75587, 28.59641 ], [ -17.75601, 28.5963 ], [ -17.75596, 28.59615 ], [ -17.75618, 28.5961 ], [ -17.75607, 28.59592 ], [ -17.75647, 28.59588 ], [ -17.75646, 28.59575 ], [ -17.75597, 28.5956 ], [ -17.75645, 28.59555 ], [ -17.7565, 28.59533 ], [ -17.75616, 28.59512 ], [ -17.75656, 28.59513 ], [ -17.75664, 28.59505 ], [ -17.75682, 28.59486 ], [ -17.75685, 28.59411 ], [ -17.75638, 28.59355 ], [ -17.7559, 28.59364 ], [ -17.75581, 28.59375 ], [ -17.75606, 28.59373 ], [ -17.75611, 28.59388 ], [ -17.75572, 28.59405 ], [ -17.75544, 28.59371 ], [ -17.75504, 28.5937 ], [ -17.75574, 28.59307 ], [ -17.7555, 28.59321 ], [ -17.75463, 28.59319 ], [ -17.75472, 28.59301 ], [ -17.75508, 28.59311 ], [ -17.75598, 28.59276 ], [ -17.75582, 28.59247 ], [ -17.75538, 28.59239 ], [ -17.75518, 28.59267 ], [ -17.75444, 28.59237 ], [ -17.75507, 28.59227 ], [ -17.75558, 28.59182 ], [ -17.75569, 28.59191 ], [ -17.75592, 28.59175 ], [ -17.7561, 28.59153 ], [ -17.75606, 28.59127 ], [ -17.75649, 28.59081 ], [ -17.75637, 28.59026 ], [ -17.75663, 28.59025 ], [ -17.75675, 28.58995 ], [ -17.757, 28.58981 ], [ -17.75703, 28.58947 ], [ -17.75723, 28.58941 ], [ -17.75806, 28.58826 ], [ -17.758, 28.58764 ], [ -17.75766, 28.58699 ], [ -17.75678, 28.58715 ], [ -17.75593, 28.58671 ], [ -17.7561, 28.58658 ], [ -17.75587, 28.58643 ], [ -17.75655, 28.58638 ], [ -17.75637, 28.5862 ], [ -17.75674, 28.58622 ], [ -17.75617, 28.58588 ], [ -17.75643, 28.58596 ], [ -17.75672, 28.58561 ], [ -17.75735, 28.58567 ], [ -17.75719, 28.58548 ], [ -17.75669, 28.58543 ], [ -17.75665, 28.58503 ], [ -17.75757, 28.58502 ], [ -17.75757, 28.58472 ], [ -17.75793, 28.58454 ], [ -17.75866, 28.58469 ], [ -17.75954, 28.58415 ], [ -17.76006, 28.58355 ], [ -17.76033, 28.58287 ], [ -17.76035, 28.5827 ], [ -17.76004, 28.58253 ], [ -17.7603, 28.58243 ], [ -17.76058, 28.58201 ], [ -17.76083, 28.58165 ], [ -17.76105, 28.5813 ], [ -17.76082, 28.5801 ], [ -17.76052, 28.57984 ], [ -17.76013, 28.5798 ], [ -17.76043, 28.57936 ], [ -17.76012, 28.5791 ], [ -17.76027, 28.57896 ], [ -17.76056, 28.57915 ], [ -17.7608, 28.57897 ], [ -17.76065, 28.57873 ], [ -17.7607, 28.57853 ], [ -17.7605, 28.57844 ], [ -17.76028, 28.57823 ], [ -17.76116, 28.57781 ], [ -17.76114, 28.57605 ], [ -17.76055, 28.57579 ], [ -17.76059, 28.57546 ], [ -17.7602, 28.57516 ], [ -17.76017, 28.57494 ], [ -17.76039, 28.57466 ], [ -17.76026, 28.57445 ], [ -17.76051, 28.57427 ], [ -17.76024, 28.57414 ], [ -17.7599, 28.57437 ], [ -17.75975, 28.57421 ], [ -17.75956, 28.57436 ], [ -17.75932, 28.5742 ], [ -17.75954, 28.57412 ], [ -17.75955, 28.57395 ], [ -17.75952, 28.57354 ], [ -17.75963, 28.57333 ], [ -17.75968, 28.57316 ], [ -17.75972, 28.573 ], [ -17.75979, 28.57282 ], [ -17.75986, 28.57279 ], [ -17.75972, 28.57258 ], [ -17.75981, 28.57244 ], [ -17.76016, 28.57246 ], [ -17.76026, 28.57232 ], [ -17.76009, 28.57221 ], [ -17.76007, 28.57197 ], [ -17.76043, 28.57161 ], [ -17.76021, 28.57125 ], [ -17.75985, 28.57102 ], [ -17.76009, 28.57089 ], [ -17.75989, 28.57052 ], [ -17.76019, 28.57056 ], [ -17.76018, 28.5703 ], [ -17.76032, 28.57031 ], [ -17.76009, 28.56996 ], [ -17.7599, 28.56992 ], [ -17.76022, 28.56977 ], [ -17.76007, 28.56977 ], [ -17.76032, 28.56948 ], [ -17.76052, 28.56961 ], [ -17.76036, 28.56962 ], [ -17.76049, 28.56975 ], [ -17.76077, 28.56947 ], [ -17.76091, 28.5696 ], [ -17.76108, 28.56954 ], [ -17.76115, 28.56952 ], [ -17.76104, 28.56935 ], [ -17.76136, 28.5693 ], [ -17.76149, 28.56927 ], [ -17.76163, 28.5692 ], [ -17.76164, 28.56902 ], [ -17.76154, 28.56893 ], [ -17.76146, 28.56874 ], [ -17.76193, 28.56879 ], [ -17.76238, 28.56839 ], [ -17.76223, 28.56823 ], [ -17.76242, 28.56814 ], [ -17.76232, 28.56762 ], [ -17.76268, 28.56716 ], [ -17.76361, 28.56722 ], [ -17.76363, 28.56697 ], [ -17.76396, 28.56701 ], [ -17.76411, 28.56683 ], [ -17.76411, 28.56708 ], [ -17.76438, 28.567 ], [ -17.76659, 28.56493 ], [ -17.76678, 28.56446 ], [ -17.76651, 28.56402 ], [ -17.76703, 28.56355 ], [ -17.76691, 28.56333 ], [ -17.76654, 28.56329 ], [ -17.76721, 28.5632 ], [ -17.76797, 28.56212 ], [ -17.76787, 28.56199 ], [ -17.76798, 28.5619 ], [ -17.76776, 28.56161 ], [ -17.76748, 28.56141 ], [ -17.76813, 28.5608 ], [ -17.76892, 28.56048 ], [ -17.76925, 28.56049 ], [ -17.77005, 28.55985 ], [ -17.76996, 28.55968 ], [ -17.77016, 28.55968 ], [ -17.77082, 28.55906 ], [ -17.77123, 28.55844 ], [ -17.77146, 28.55771 ], [ -17.77147, 28.557 ], [ -17.77122, 28.55679 ], [ -17.77119, 28.55653 ], [ -17.77193, 28.55565 ], [ -17.77227, 28.55541 ], [ -17.77354, 28.55522 ], [ -17.77449, 28.55479 ], [ -17.77533, 28.55428 ], [ -17.77625, 28.55338 ], [ -17.77688, 28.55305 ], [ -17.77853, 28.55147 ], [ -17.77925, 28.55043 ], [ -17.78016, 28.5496 ], [ -17.78085, 28.54802 ], [ -17.78184, 28.54811 ], [ -17.78288, 28.54767 ], [ -17.78394, 28.54666 ], [ -17.78675, 28.54366 ], [ -17.78859, 28.53993 ], [ -17.78973, 28.53717 ], [ -17.7902, 28.53525 ], [ -17.7901, 28.53354 ], [ -17.78984, 28.53249 ], [ -17.79032, 28.5314 ], [ -17.79027, 28.53117 ], [ -17.79079, 28.53069 ], [ -17.7908, 28.53027 ], [ -17.79062, 28.53026 ], [ -17.79127, 28.52994 ], [ -17.79163, 28.53018 ], [ -17.79229, 28.52989 ], [ -17.79277, 28.52931 ], [ -17.79311, 28.52762 ], [ -17.79317, 28.52748 ], [ -17.79304, 28.52724 ], [ -17.79338, 28.52669 ], [ -17.79345, 28.5264 ], [ -17.79349, 28.52558 ], [ -17.79332, 28.52527 ], [ -17.79345, 28.52478 ], [ -17.79357, 28.52477 ], [ -17.79402, 28.52449 ], [ -17.79383, 28.52422 ], [ -17.79424, 28.52435 ], [ -17.79509, 28.523 ], [ -17.7954, 28.52279 ], [ -17.79541, 28.52257 ], [ -17.7957, 28.52252 ], [ -17.79589, 28.52236 ], [ -17.79594, 28.52229 ], [ -17.79608, 28.52216 ], [ -17.79641, 28.5211 ], [ -17.79622, 28.51979 ], [ -17.7959, 28.51945 ], [ -17.79623, 28.51909 ], [ -17.79599, 28.519 ], [ -17.79663, 28.51878 ], [ -17.79604, 28.51877 ], [ -17.79646, 28.51851 ] ] ] ] } }
]
}
